#VRML V2.0 utf8


Group {
  children 
    DEF o0 Group {
      children [ 
        DEF o1 Group {
          children 
            DEF o2 Transform {
              translation 0 0 -2.5999999
              rotation 0 0 1  0
              scale 1 1 1
              scaleOrientation 0 0 1  0
              center 0 0 0
              children 
                DEF o3 Group {
                  children [ 
                    DEF o4 Group {
                      children 
                        DEF o5 Shape {
                          appearance 
                          Appearance {
                            material 
                            Material {
                              diffuseColor 0.098039217 0.098039217 0.098039217
                              shininess 1

                            }

                          }
                          geometry 
                          IndexedLineSet {
                            coord 
                            DEF o6 Coordinate {
                              point [ -0.31999999 -0.31999999 0.25,
                                  -0.31999999 -0.31999999 9.9499998,
                                  0.31999999 -0.31999999 0.25,
                                  0.31999999 -0.31999999 9.9499998,
                                  -0.31999999 0.31999999 0.25,
                                  -0.31999999 0.31999999 9.9499998,
                                  -0.31999999 -0.31999999 0.25,
                                  -0.31999999 -0.31999999 9.9499998,
                                  -0.31999999 -0.31999999 0.25,
                                  -0.07 -0.07 0,
                                  0.31999999 -0.31999999 0.25,
                                  0.07 -0.07 0,
                                  -0.31999999 -0.31999999 9.9499998,
                                  -0.07 -0.07 10.2,
                                  0.31999999 -0.31999999 9.9499998,
                                  0.07 -0.07 10.2,
                                  0.31999999 -0.31999999 0.25,
                                  0.31999999 -0.31999999 9.9499998,
                                  0.31999999 0.31999999 0.25,
                                  0.31999999 0.31999999 9.9499998,
                                  0.31999999 0.31999999 0.25,
                                  0.31999999 0.31999999 9.9499998,
                                  -0.31999999 0.31999999 0.25,
                                  -0.31999999 0.31999999 9.9499998,
                                  -0.31999999 0.31999999 0.25,
                                  -0.07 0.07 0,
                                  -0.31999999 -0.31999999 0.25,
                                  -0.07 -0.07 0,
                                  -0.31999999 0.31999999 9.9499998,
                                  -0.07 0.07 10.2,
                                  -0.31999999 -0.31999999 9.9499998,
                                  -0.07 -0.07 10.2,
                                  -0.07 -0.07 0,
                                  0.07 -0.07 0,
                                  -0.07 0.07 0,
                                  0.07 0.07 0,
                                  0.31999999 -0.31999999 0.25,
                                  0.07 -0.07 0,
                                  0.31999999 0.31999999 0.25,
                                  0.07 0.07 0,
                                  -0.07 -0.07 10.2,
                                  0.07 -0.07 10.2,
                                  -0.07 0.07 10.2,
                                  0.07 0.07 10.2,
                                  0.31999999 -0.31999999 9.9499998,
                                  0.07 -0.07 10.2,
                                  0.31999999 0.31999999 9.9499998,
                                  0.07 0.07 10.2,
                                  0.31999999 0.31999999 0.25,
                                  0.07 0.07 0,
                                  -0.31999999 0.31999999 0.25,
                                  -0.07 0.07 0,
                                  0.31999999 0.31999999 9.9499998,
                                  0.07 0.07 10.2,
                                  -0.31999999 0.31999999 9.9499998,
                                  -0.07 0.07 10.2,
                                  2.22 -0.31999999 0.25,
                                  2.22 -0.31999999 9.9499998,
                                  2.8599999 -0.31999999 0.25,
                                  2.8599999 -0.31999999 9.9499998,
                                  2.22 0.31999999 0.25,
                                  2.22 0.31999999 9.9499998,
                                  2.22 -0.31999999 0.25,
                                  2.22 -0.31999999 9.9499998,
                                  2.22 -0.31999999 0.25,
                                  2.47 -0.07 0,
                                  2.8599999 -0.31999999 0.25,
                                  2.6099999 -0.07 0,
                                  2.22 -0.31999999 9.9499998,
                                  2.47 -0.07 10.2,
                                  2.8599999 -0.31999999 9.9499998,
                                  2.6099999 -0.07 10.2,
                                  2.8599999 -0.31999999 0.25,
                                  2.8599999 -0.31999999 9.9499998,
                                  2.8599999 0.31999999 0.25,
                                  2.8599999 0.31999999 9.9499998,
                                  2.8599999 0.31999999 0.25,
                                  2.8599999 0.31999999 9.9499998,
                                  2.22 0.31999999 0.25,
                                  2.22 0.31999999 9.9499998,
                                  2.22 0.31999999 0.25,
                                  2.47 0.07 0,
                                  2.22 -0.31999999 0.25,
                                  2.47 -0.07 0,
                                  2.22 0.31999999 9.9499998,
                                  2.47 0.07 10.2,
                                  2.22 -0.31999999 9.9499998,
                                  2.47 -0.07 10.2,
                                  2.47 -0.07 0,
                                  2.6099999 -0.07 0,
                                  2.47 0.07 0,
                                  2.6099999 0.07 0,
                                  2.8599999 -0.31999999 0.25,
                                  2.6099999 -0.07 0,
                                  2.8599999 0.31999999 0.25,
                                  2.6099999 0.07 0,
                                  2.47 -0.07 10.2,
                                  2.6099999 -0.07 10.2,
                                  2.47 0.07 10.2,
                                  2.6099999 0.07 10.2,
                                  2.8599999 -0.31999999 9.9499998,
                                  2.6099999 -0.07 10.2,
                                  2.8599999 0.31999999 9.9499998,
                                  2.6099999 0.07 10.2,
                                  2.8599999 0.31999999 0.25,
                                  2.6099999 0.07 0,
                                  2.22 0.31999999 0.25,
                                  2.47 0.07 0,
                                  2.8599999 0.31999999 9.9499998,
                                  2.6099999 0.07 10.2,
                                  2.22 0.31999999 9.9499998,
                                  2.47 0.07 10.2,
                                  -0.31999999 -0.31999999 0.25,
                                  -0.31999999 -0.31999999 9.9499998,
                                  0.31999999 -0.31999999 0.25,
                                  0.31999999 -0.31999999 9.9499998,
                                  -0.31999999 0.31999999 0.25,
                                  -0.31999999 0.31999999 9.9499998,
                                  -0.07 -0.07 0,
                                  0.07 -0.07 0,
                                  -0.07 -0.07 10.2,
                                  0.07 -0.07 10.2,
                                  0.31999999 0.31999999 0.25,
                                  0.31999999 0.31999999 9.9499998,
                                  -0.07 0.07 0,
                                  -0.07 0.07 10.2,
                                  0.07 0.07 0,
                                  0.07 0.07 10.2,
                                  2.22 -0.31999999 0.25,
                                  2.22 -0.31999999 9.9499998,
                                  2.8599999 -0.31999999 0.25,
                                  2.8599999 -0.31999999 9.9499998,
                                  2.22 0.31999999 0.25,
                                  2.22 0.31999999 9.9499998,
                                  2.47 -0.07 0,
                                  2.6099999 -0.07 0,
                                  2.47 -0.07 10.2,
                                  2.6099999 -0.07 10.2,
                                  2.8599999 0.31999999 0.25,
                                  2.8599999 0.31999999 9.9499998,
                                  2.47 0.07 0,
                                  2.47 0.07 10.2,
                                  2.6099999 0.07 0,
                                  2.6099999 0.07 10.2 ]

                            }
                            coordIndex [ 0, 1, -1, 0, 2, -1, 1, 3,
                                -1, 2, 3, -1, 4, 5, -1, 4,
                                6, -1, 5, 7, -1, 8, 9, -1,
                                9, 11, -1, 10, 11, -1, 12, 13,
                                -1, 13, 15, -1, 14, 15, -1, 16,
                                18, -1, 17, 19, -1, 18, 19, -1,
                                20, 22, -1, 21, 23, -1, 24, 25,
                                -1, 25, 27, -1, 28, 29, -1, 29,
                                31, -1, 33, 35, -1, 35, 34, -1,
                                38, 39, -1, 41, 43, -1, 43, 42,
                                -1, 46, 47, -1, 56, 57, -1, 56,
                                58, -1, 57, 59, -1, 58, 59, -1,
                                60, 61, -1, 60, 62, -1, 61, 63,
                                -1, 64, 65, -1, 65, 67, -1, 66,
                                67, -1, 68, 69, -1, 69, 71, -1,
                                70, 71, -1, 72, 74, -1, 73, 75,
                                -1, 74, 75, -1, 76, 78, -1, 77,
                                79, -1, 80, 81, -1, 81, 83, -1,
                                84, 85, -1, 85, 87, -1, 89, 91,
                                -1, 91, 90, -1, 94, 95, -1, 97,
                                99, -1, 99, 98, -1, 102, 103, -1 ]

                          }

                        }

                    },
                      
                    DEF o7 Group {
                      children 
                        DEF o8 Shape {
                          appearance 
                          Appearance {
                            material 
                            Material {

                            }

                          }
                          geometry 
                          IndexedFaceSet {
                            coord 
                            USE o6
                            coordIndex [ 0, 2, 1, -1, 1, 2, 3, -1,
                                4, 6, 5, -1, 5, 6, 7, -1,
                                9, 11, 8, -1, 8, 11, 10, -1,
                                15, 13, 12, -1, 15, 12, 14, -1,
                                16, 18, 17, -1, 17, 18, 19, -1,
                                20, 22, 21, -1, 21, 22, 23, -1,
                                25, 27, 24, -1, 24, 27, 26, -1,
                                31, 29, 28, -1, 31, 28, 30, -1,
                                32, 35, 33, -1, 34, 35, 32, -1,
                                37, 39, 36, -1, 36, 39, 38, -1,
                                43, 40, 41, -1, 43, 42, 40, -1,
                                47, 45, 44, -1, 47, 44, 46, -1,
                                49, 51, 48, -1, 48, 51, 50, -1,
                                55, 53, 52, -1, 55, 52, 54, -1,
                                56, 58, 57, -1, 57, 58, 59, -1,
                                60, 62, 61, -1, 61, 62, 63, -1,
                                65, 67, 64, -1, 64, 67, 66, -1,
                                71, 69, 68, -1, 71, 68, 70, -1,
                                72, 74, 73, -1, 73, 74, 75, -1,
                                76, 78, 77, -1, 77, 78, 79, -1,
                                81, 83, 80, -1, 80, 83, 82, -1,
                                87, 85, 84, -1, 87, 84, 86, -1,
                                88, 91, 89, -1, 90, 91, 88, -1,
                                93, 95, 92, -1, 92, 95, 94, -1,
                                99, 96, 97, -1, 99, 98, 96, -1,
                                103, 101, 100, -1, 103, 100, 102, -1,
                                105, 107, 104, -1, 104, 107, 106, -1,
                                111, 109, 108, -1, 111, 108, 110, -1 ]
                            ccw TRUE
                            solid FALSE
                            convex TRUE
                            creaseAngle 0

                          }

                        }

                    },
                      
                    DEF o9 Group {
                      children 
                        DEF o10 Shape {
                          appearance 
                          Appearance {
                            material 
                            Material {
                              emissiveColor 0.098039217 0.098039217 0.098039217

                            }

                          }
                          geometry 
                          PointSet {
                            coord 
                            USE o6

                          }

                        }

                    } ]

                }

            }

        },
          
        DEF o11 Group {
          children 
            DEF o12 Transform {
              translation 0 0 0
              rotation 0 0 1  0
              scale 1 1 1
              scaleOrientation 0 0 1  0
              center 0 0 0
              children 
                DEF o13 Group {
                  children [ 
                    DEF o14 Group {
                      children 
                        DEF o15 Shape {
                          appearance 
                          Appearance {
                            material 
                            Material {
                              diffuseColor 0.098039217 0.098039217 0.098039217
                              shininess 1

                            }

                          }
                          geometry 
                          IndexedLineSet {
                            coord 
                            DEF o16 Coordinate {
                              point [ -0.85000002 1.25 0,
                                  0.85000002 1.25 0,
                                  -0.85000002 1.25 2.5,
                                  0.85000002 1.25 2.5,
                                  -0.85000002 1.25 0,
                                  0.85000002 1.25 0,
                                  -1.1 1 0,
                                  1.1 1 0,
                                  -1.1 0.80000001 0,
                                  1.1 0.80000001 0,
                                  -1.27 0.80000001 0,
                                  1.27 0.80000001 0,
                                  -1.27 -0.80000001 0,
                                  1.27 -0.80000001 0,
                                  -1.1 -0.80000001 0,
                                  1.1 -0.80000001 0,
                                  -1.1 -1 0,
                                  1.1 -1 0,
                                  -0.85000002 -1.25 0,
                                  0.85000002 -1.25 0,
                                  -0.85000002 1.25 0,
                                  -1.1 1 0,
                                  -0.85000002 1.25 2.5,
                                  -1.1 1 2.5,
                                  0.85000002 1.25 0,
                                  1.1 1 0,
                                  0.85000002 1.25 2.5,
                                  1.1 1 2.5,
                                  -0.85000002 1.25 2.5,
                                  0.85000002 1.25 2.5,
                                  -1.1 1 2.5,
                                  1.1 1 2.5,
                                  -1.1 0.80000001 2.5,
                                  1.1 0.80000001 2.5,
                                  -1.27 0.80000001 2.5,
                                  1.27 0.80000001 2.5,
                                  -1.27 -0.80000001 2.5,
                                  1.27 -0.80000001 2.5,
                                  -1.1 -0.80000001 2.5,
                                  1.1 -0.80000001 2.5,
                                  -1.1 -1 2.5,
                                  1.1 -1 2.5,
                                  -0.85000002 -1.25 2.5,
                                  0.85000002 -1.25 2.5,
                                  -1.1 0.80000001 0,
                                  -1.1 1 0,
                                  -1.1 1 2.5,
                                  -1.1 0.80000001 2.5,
                                  1.1 1 0,
                                  1.1 0.80000001 0,
                                  1.1 1 2.5,
                                  1.1 0.80000001 2.5,
                                  -1.27 0.80000001 0,
                                  -1.27 0.80000001 2.5,
                                  -1.1 0.80000001 0,
                                  -1.1 0.80000001 2.5,
                                  1.1 0.80000001 0,
                                  1.1 0.80000001 2.5,
                                  1.27 0.80000001 0,
                                  1.27 0.80000001 2.5,
                                  -1.27 -0.80000001 0,
                                  -1.27 -0.80000001 2.5,
                                  -1.27 0.80000001 0,
                                  -1.27 0.80000001 2.5,
                                  1.27 0.80000001 0,
                                  1.27 0.80000001 2.5,
                                  1.27 -0.80000001 0,
                                  1.27 -0.80000001 2.5,
                                  -1.1 -0.80000001 0,
                                  -1.1 -0.80000001 2.5,
                                  -1.27 -0.80000001 0,
                                  -1.27 -0.80000001 2.5,
                                  1.27 -0.80000001 0,
                                  1.27 -0.80000001 2.5,
                                  1.1 -0.80000001 0,
                                  1.1 -0.80000001 2.5,
                                  -1.1 -1 0,
                                  -1.1 -0.80000001 0,
                                  -1.1 -1 2.5,
                                  -1.1 -0.80000001 2.5,
                                  1.1 -0.80000001 0,
                                  1.1 -1 0,
                                  1.1 -1 2.5,
                                  1.1 -0.80000001 2.5,
                                  -0.85000002 -1.25 0,
                                  -1.1 -1 0,
                                  -0.85000002 -1.25 2.5,
                                  -1.1 -1 2.5,
                                  1.1 -1 0,
                                  0.85000002 -1.25 0,
                                  1.1 -1 2.5,
                                  0.85000002 -1.25 2.5,
                                  0.85000002 -1.25 0,
                                  -0.85000002 -1.25 0,
                                  0.85000002 -1.25 2.5,
                                  -0.85000002 -1.25 2.5,
                                  1.6900001 1.25 0,
                                  3.3900001 1.25 0,
                                  1.6900001 1.25 2.5,
                                  3.3900001 1.25 2.5,
                                  1.6900001 1.25 0,
                                  3.3900001 1.25 0,
                                  1.4400001 1 0,
                                  3.6400001 1 0,
                                  1.4400001 0.80000001 0,
                                  3.6400001 0.80000001 0,
                                  1.27 0.80000001 0,
                                  3.8099999 0.80000001 0,
                                  1.27 -0.80000001 0,
                                  3.8099999 -0.80000001 0,
                                  1.4400001 -0.80000001 0,
                                  3.6400001 -0.80000001 0,
                                  1.4400001 -1 0,
                                  3.6400001 -1 0,
                                  1.6900001 -1.25 0,
                                  3.3900001 -1.25 0,
                                  1.6900001 1.25 0,
                                  1.4400001 1 0,
                                  1.6900001 1.25 2.5,
                                  1.4400001 1 2.5,
                                  3.3900001 1.25 0,
                                  3.6400001 1 0,
                                  3.3900001 1.25 2.5,
                                  3.6400001 1 2.5,
                                  1.6900001 1.25 2.5,
                                  3.3900001 1.25 2.5,
                                  1.4400001 1 2.5,
                                  3.6400001 1 2.5,
                                  1.4400001 0.80000001 2.5,
                                  3.6400001 0.80000001 2.5,
                                  1.27 0.80000001 2.5,
                                  3.8099999 0.80000001 2.5,
                                  1.27 -0.80000001 2.5,
                                  3.8099999 -0.80000001 2.5,
                                  1.4400001 -0.80000001 2.5,
                                  3.6400001 -0.80000001 2.5,
                                  1.4400001 -1 2.5,
                                  3.6400001 -1 2.5,
                                  1.6900001 -1.25 2.5,
                                  3.3900001 -1.25 2.5,
                                  1.4400001 0.80000001 0,
                                  1.4400001 1 0,
                                  1.4400001 1 2.5,
                                  1.4400001 0.80000001 2.5,
                                  3.6400001 1 0,
                                  3.6400001 0.80000001 0,
                                  3.6400001 1 2.5,
                                  3.6400001 0.80000001 2.5,
                                  1.27 0.80000001 0,
                                  1.27 0.80000001 2.5,
                                  1.4400001 0.80000001 0,
                                  1.4400001 0.80000001 2.5,
                                  3.6400001 0.80000001 0,
                                  3.6400001 0.80000001 2.5,
                                  3.8099999 0.80000001 0,
                                  3.8099999 0.80000001 2.5,
                                  1.27 -0.80000001 0,
                                  1.27 -0.80000001 2.5,
                                  1.27 0.80000001 0,
                                  1.27 0.80000001 2.5,
                                  3.8099999 0.80000001 0,
                                  3.8099999 0.80000001 2.5,
                                  3.8099999 -0.80000001 0,
                                  3.8099999 -0.80000001 2.5,
                                  1.4400001 -0.80000001 0,
                                  1.4400001 -0.80000001 2.5,
                                  1.27 -0.80000001 0,
                                  1.27 -0.80000001 2.5,
                                  3.8099999 -0.80000001 0,
                                  3.8099999 -0.80000001 2.5,
                                  3.6400001 -0.80000001 0,
                                  3.6400001 -0.80000001 2.5,
                                  1.4400001 -1 0,
                                  1.4400001 -0.80000001 0,
                                  1.4400001 -1 2.5,
                                  1.4400001 -0.80000001 2.5,
                                  3.6400001 -0.80000001 0,
                                  3.6400001 -1 0,
                                  3.6400001 -1 2.5,
                                  3.6400001 -0.80000001 2.5,
                                  1.6900001 -1.25 0,
                                  1.4400001 -1 0,
                                  1.6900001 -1.25 2.5,
                                  1.4400001 -1 2.5,
                                  3.6400001 -1 0,
                                  3.3900001 -1.25 0,
                                  3.6400001 -1 2.5,
                                  3.3900001 -1.25 2.5,
                                  3.3900001 -1.25 0,
                                  1.6900001 -1.25 0,
                                  3.3900001 -1.25 2.5,
                                  1.6900001 -1.25 2.5,
                                  -0.85000002 1.25 0,
                                  0.85000002 1.25 0,
                                  -0.85000002 1.25 2.5,
                                  0.85000002 1.25 2.5,
                                  -1.1 1 0,
                                  1.1 1 0,
                                  -1.1 0.80000001 0,
                                  1.1 0.80000001 0,
                                  -1.27 0.80000001 0,
                                  1.27 0.80000001 0,
                                  -1.27 -0.80000001 0,
                                  1.27 -0.80000001 0,
                                  -1.1 -0.80000001 0,
                                  1.1 -0.80000001 0,
                                  -1.1 -1 0,
                                  1.1 -1 0,
                                  -0.85000002 -1.25 0,
                                  0.85000002 -1.25 0,
                                  -1.1 1 2.5,
                                  1.1 1 2.5,
                                  -1.1 0.80000001 2.5,
                                  1.1 0.80000001 2.5,
                                  -1.27 0.80000001 2.5,
                                  1.27 0.80000001 2.5,
                                  -1.27 -0.80000001 2.5,
                                  1.27 -0.80000001 2.5,
                                  -1.1 -0.80000001 2.5,
                                  1.1 -0.80000001 2.5,
                                  -1.1 -1 2.5,
                                  1.1 -1 2.5,
                                  -0.85000002 -1.25 2.5,
                                  0.85000002 -1.25 2.5,
                                  1.6900001 1.25 0,
                                  3.3900001 1.25 0,
                                  1.6900001 1.25 2.5,
                                  3.3900001 1.25 2.5,
                                  1.4400001 1 0,
                                  3.6400001 1 0,
                                  1.4400001 0.80000001 0,
                                  3.6400001 0.80000001 0,
                                  1.27 0.80000001 0,
                                  3.8099999 0.80000001 0,
                                  1.27 -0.80000001 0,
                                  3.8099999 -0.80000001 0,
                                  1.4400001 -0.80000001 0,
                                  3.6400001 -0.80000001 0,
                                  1.4400001 -1 0,
                                  3.6400001 -1 0,
                                  1.6900001 -1.25 0,
                                  3.3900001 -1.25 0,
                                  1.4400001 1 2.5,
                                  3.6400001 1 2.5,
                                  1.4400001 0.80000001 2.5,
                                  3.6400001 0.80000001 2.5,
                                  1.27 0.80000001 2.5,
                                  3.8099999 0.80000001 2.5,
                                  1.27 -0.80000001 2.5,
                                  3.8099999 -0.80000001 2.5,
                                  1.4400001 -0.80000001 2.5,
                                  3.6400001 -0.80000001 2.5,
                                  1.4400001 -1 2.5,
                                  3.6400001 -1 2.5,
                                  1.6900001 -1.25 2.5,
                                  3.3900001 -1.25 2.5 ]

                            }
                            coordIndex [ 0, 1, -1, 0, 2, -1, 1, 3,
                                -1, 2, 3, -1, 4, 6, -1, 5,
                                7, -1, 8, 6, -1, 7, 9, -1,
                                10, 8, -1, 9, 11, -1, 12, 10,
                                -1, 11, 13, -1, 14, 12, -1, 13,
                                15, -1, 16, 14, -1, 15, 17, -1,
                                18, 16, -1, 17, 19, -1, 19, 18,
                                -1, 21, 23, -1, 22, 23, -1, 25,
                                27, -1, 26, 27, -1, 32, 30, -1,
                                31, 33, -1, 34, 32, -1, 33, 35,
                                -1, 36, 34, -1, 35, 37, -1, 38,
                                36, -1, 37, 39, -1, 40, 38, -1,
                                39, 41, -1, 42, 40, -1, 41, 43,
                                -1, 43, 42, -1, 44, 47, -1, 49,
                                51, -1, 52, 53, -1, 58, 59, -1,
                                60, 61, -1, 66, 67, -1, 68, 69,
                                -1, 74, 75, -1, 76, 78, -1, 81,
                                82, -1, 84, 86, -1, 89, 91, -1,
                                96, 97, -1, 96, 98, -1, 97, 99,
                                -1, 98, 99, -1, 100, 102, -1, 101,
                                103, -1, 104, 102, -1, 103, 105, -1,
                                106, 104, -1, 105, 107, -1, 108, 106,
                                -1, 107, 109, -1, 110, 108, -1, 109,
                                111, -1, 112, 110, -1, 111, 113, -1,
                                114, 112, -1, 113, 115, -1, 115, 114,
                                -1, 117, 119, -1, 118, 119, -1, 121,
                                123, -1, 122, 123, -1, 128, 126, -1,
                                127, 129, -1, 130, 128, -1, 129, 131,
                                -1, 132, 130, -1, 131, 133, -1, 134,
                                132, -1, 133, 135, -1, 136, 134, -1,
                                135, 137, -1, 138, 136, -1, 137, 139,
                                -1, 139, 138, -1, 140, 143, -1, 145,
                                147, -1, 148, 149, -1, 154, 155, -1,
                                156, 157, -1, 162, 163, -1, 164, 165,
                                -1, 170, 171, -1, 172, 174, -1, 177,
                                178, -1, 180, 182, -1, 185, 187, -1 ]

                          }

                        }

                    },
                      
                    DEF o17 Group {
                      children 
                        DEF o18 Shape {
                          appearance 
                          Appearance {
                            material 
                            Material {
                              diffuseColor 0 0 0

                            }

                          }
                          geometry 
                          IndexedFaceSet {
                            coord 
                            USE o16
                            coordIndex [ 1, 0, 2, -1, 1, 2, 3, -1,
                                15, 17, 19, -1, 9, 11, 13, -1,
                                9, 13, 15, -1, 14, 18, 16, -1,
                                14, 19, 18, -1, 14, 15, 19, -1,
                                5, 7, 9, -1, 8, 9, 15, -1,
                                8, 15, 14, -1, 10, 14, 12, -1,
                                10, 8, 14, -1, 4, 5, 9, -1,
                                4, 9, 8, -1, 6, 4, 8, -1,
                                21, 23, 20, -1, 20, 23, 22, -1,
                                27, 25, 24, -1, 27, 24, 26, -1,
                                41, 39, 43, -1, 35, 33, 37, -1,
                                37, 33, 39, -1, 42, 38, 40, -1,
                                43, 38, 42, -1, 39, 38, 43, -1,
                                31, 29, 33, -1, 33, 32, 39, -1,
                                39, 32, 38, -1, 38, 34, 36, -1,
                                32, 34, 38, -1, 29, 28, 33, -1,
                                33, 28, 32, -1, 28, 30, 32, -1,
                                45, 44, 47, -1, 45, 47, 46, -1,
                                49, 48, 50, -1, 49, 50, 51, -1,
                                54, 52, 53, -1, 54, 53, 55, -1,
                                58, 56, 57, -1, 58, 57, 59, -1,
                                62, 60, 61, -1, 62, 61, 63, -1,
                                66, 64, 65, -1, 66, 65, 67, -1,
                                70, 68, 69, -1, 70, 69, 71, -1,
                                74, 72, 73, -1, 74, 73, 75, -1,
                                77, 76, 78, -1, 77, 78, 79, -1,
                                81, 80, 83, -1, 81, 83, 82, -1,
                                87, 85, 84, -1, 87, 84, 86, -1,
                                91, 89, 88, -1, 91, 88, 90, -1,
                                93, 92, 94, -1, 93, 94, 95, -1,
                                97, 96, 98, -1, 97, 98, 99, -1,
                                111, 113, 115, -1, 105, 107, 109, -1,
                                105, 109, 111, -1, 110, 114, 112, -1,
                                110, 115, 114, -1, 110, 111, 115, -1,
                                101, 103, 105, -1, 104, 105, 111, -1,
                                104, 111, 110, -1, 106, 110, 108, -1,
                                106, 104, 110, -1, 100, 101, 105, -1,
                                100, 105, 104, -1, 102, 100, 104, -1,
                                117, 119, 116, -1, 116, 119, 118, -1,
                                123, 121, 120, -1, 123, 120, 122, -1,
                                137, 135, 139, -1, 131, 129, 133, -1,
                                133, 129, 135, -1, 138, 134, 136, -1,
                                139, 134, 138, -1, 135, 134, 139, -1,
                                127, 125, 129, -1, 129, 128, 135, -1,
                                135, 128, 134, -1, 134, 130, 132, -1,
                                128, 130, 134, -1, 125, 124, 129, -1,
                                129, 124, 128, -1, 124, 126, 128, -1,
                                141, 140, 143, -1, 141, 143, 142, -1,
                                145, 144, 146, -1, 145, 146, 147, -1,
                                150, 148, 149, -1, 150, 149, 151, -1,
                                154, 152, 153, -1, 154, 153, 155, -1,
                                158, 156, 157, -1, 158, 157, 159, -1,
                                162, 160, 161, -1, 162, 161, 163, -1,
                                166, 164, 165, -1, 166, 165, 167, -1,
                                170, 168, 169, -1, 170, 169, 171, -1,
                                173, 172, 174, -1, 173, 174, 175, -1,
                                177, 176, 179, -1, 177, 179, 178, -1,
                                183, 181, 180, -1, 183, 180, 182, -1,
                                187, 185, 184, -1, 187, 184, 186, -1,
                                189, 188, 190, -1, 189, 190, 191, -1 ]
                            ccw TRUE
                            solid FALSE
                            convex TRUE
                            creaseAngle 0

                          }

                        }

                    },
                      
                    DEF o19 Group {
                      children 
                        DEF o20 Shape {
                          appearance 
                          Appearance {
                            material 
                            Material {
                              emissiveColor 0.098039217 0.098039217 0.098039217

                            }

                          }
                          geometry 
                          PointSet {
                            coord 
                            USE o16

                          }

                        }

                    } ]

                }

            }

        } ]

    }

}
