#VRML V2.0 utf8


Group {
  children 
    DEF o0 Group {
      children [ 
        DEF o1 Group {
          children 
            DEF o2 Transform {
              translation 0 0 0
              rotation 0 0 1  0
              scale 1 1 1
              scaleOrientation 0 0 1  0
              center 0 0 0
              children 
                DEF o3 Group {
                  children [ 
                    DEF o4 Group {
                      children 
                        DEF o5 Shape {
                          appearance 
                          Appearance {
                            material 
                            Material {
                              diffuseColor 0 0 0
                              shininess 1

                            }

                          }
                          geometry 
                          IndexedLineSet {
                            coord 
                            DEF o6 Coordinate {
                              point [ -0.30000001 0.30000001 10.6,
                                  -0.30000001 0.30000001 -0.89999998,
                                  0.30000001 0.30000001 10.6,
                                  0.30000001 0.30000001 -0.89999998,
                                  -0.30000001 0.30000001 10.6,
                                  -0.30000001 0.30000001 -0.89999998,
                                  -0.30000001 -0.30000001 10.6,
                                  -0.30000001 0.80000001 -1.4,
                                  -0.30000001 0.31253603 -1.0112605,
                                  -0.30000001 0.34951556 -1.1169419,
                                  -0.30000001 0.40908426 -1.2117449,
                                  -0.30000001 0.48825511 -1.2909157,
                                  -0.30000001 0.58305812 -1.3504845,
                                  -0.30000001 0.68873954 -1.3874639,
                                  -0.30000001 -0.30000001 -1.5,
                                  -0.30000001 5.4000001 -1.4,
                                  -0.30000001 0.2 -2,
                                  -0.30000001 0.088739537 -1.987464,
                                  -0.30000001 -0.01694187 -1.9504844,
                                  -0.30000001 -0.1117449 -1.8909158,
                                  -0.30000001 -0.19091575 -1.8117449,
                                  -0.30000001 -0.25048444 -1.7169418,
                                  -0.30000001 -0.28746396 -1.6112604,
                                  -0.30000001 5.4000001 -2,
                                  -0.30000001 0.30000001 10.6,
                                  -0.1 0.1 10.8,
                                  0.30000001 0.30000001 10.6,
                                  0.1 0.1 10.8,
                                  -0.30000001 0.30000001 -0.89999998,
                                  -0.30000001 0.80000001 -1.4,
                                  -0.30000001 0.31253603 -1.0112605,
                                  -0.30000001 0.34951556 -1.1169419,
                                  -0.30000001 0.40908426 -1.2117449,
                                  -0.30000001 0.48825511 -1.2909157,
                                  -0.30000001 0.58305812 -1.3504845,
                                  -0.30000001 0.68873954 -1.3874639,
                                  0.30000001 0.30000001 -0.89999998,
                                  0.30000001 0.80000001 -1.4,
                                  0.30000001 0.31253603 -1.0112605,
                                  0.30000001 0.34951556 -1.1169419,
                                  0.30000001 0.40908426 -1.2117449,
                                  0.30000001 0.48825511 -1.2909157,
                                  0.30000001 0.58305812 -1.3504845,
                                  0.30000001 0.68873954 -1.3874639,
                                  0.30000001 0.30000001 10.6,
                                  0.30000001 0.30000001 -0.89999998,
                                  0.30000001 -0.30000001 10.6,
                                  0.30000001 0.80000001 -1.4,
                                  0.30000001 0.31253603 -1.0112605,
                                  0.30000001 0.34951556 -1.1169419,
                                  0.30000001 0.40908426 -1.2117449,
                                  0.30000001 0.48825511 -1.2909157,
                                  0.30000001 0.58305812 -1.3504845,
                                  0.30000001 0.68873954 -1.3874639,
                                  0.30000001 -0.30000001 -1.5,
                                  0.30000001 5.4000001 -1.4,
                                  0.30000001 0.2 -2,
                                  0.30000001 0.088739537 -1.987464,
                                  0.30000001 -0.01694187 -1.9504844,
                                  0.30000001 -0.1117449 -1.8909158,
                                  0.30000001 -0.19091575 -1.8117449,
                                  0.30000001 -0.25048444 -1.7169418,
                                  0.30000001 -0.28746396 -1.6112604,
                                  0.30000001 5.4000001 -2,
                                  -0.1 -0.1 10.8,
                                  -0.30000001 -0.30000001 10.6,
                                  -0.1 0.1 10.8,
                                  -0.30000001 0.30000001 10.6,
                                  -0.30000001 -0.30000001 -1.5,
                                  -0.30000001 -0.30000001 10.6,
                                  0.30000001 -0.30000001 10.6,
                                  0.30000001 -0.30000001 -1.5,
                                  -0.30000001 0.80000001 -1.4,
                                  -0.30000001 5.4000001 -1.4,
                                  0.30000001 5.4000001 -1.4,
                                  0.30000001 0.80000001 -1.4,
                                  -0.30000001 0.2 -2,
                                  -0.30000001 -0.30000001 -1.5,
                                  -0.30000001 0.088739537 -1.987464,
                                  -0.30000001 -0.01694187 -1.9504844,
                                  -0.30000001 -0.1117449 -1.8909158,
                                  -0.30000001 -0.19091575 -1.8117449,
                                  -0.30000001 -0.25048444 -1.7169418,
                                  -0.30000001 -0.28746396 -1.6112604,
                                  0.30000001 0.2 -2,
                                  0.30000001 -0.30000001 -1.5,
                                  0.30000001 0.088739537 -1.987464,
                                  0.30000001 -0.01694187 -1.9504844,
                                  0.30000001 -0.1117449 -1.8909158,
                                  0.30000001 -0.19091575 -1.8117449,
                                  0.30000001 -0.25048444 -1.7169418,
                                  0.30000001 -0.28746396 -1.6112604,
                                  -0.30000001 5.4000001 -1.4,
                                  -0.1 5.5999999 -1.6,
                                  -0.30000001 5.4000001 -2,
                                  -0.1 5.5999999 -1.8,
                                  -0.30000001 5.4000001 -2,
                                  -0.30000001 0.2 -2,
                                  0.30000001 5.4000001 -2,
                                  0.30000001 0.2 -2,
                                  -0.1 -0.1 10.8,
                                  0.1 -0.1 10.8,
                                  -0.1 0.1 10.8,
                                  0.1 0.1 10.8,
                                  0.1 -0.1 10.8,
                                  0.30000001 -0.30000001 10.6,
                                  0.1 0.1 10.8,
                                  0.30000001 0.30000001 10.6,
                                  0.30000001 5.4000001 -1.4,
                                  0.1 5.5999999 -1.6,
                                  0.30000001 5.4000001 -2,
                                  0.1 5.5999999 -1.8,
                                  -0.1 -0.1 10.8,
                                  -0.30000001 -0.30000001 10.6,
                                  0.1 -0.1 10.8,
                                  0.30000001 -0.30000001 10.6,
                                  -0.30000001 5.4000001 -1.4,
                                  -0.1 5.5999999 -1.6,
                                  0.30000001 5.4000001 -1.4,
                                  0.1 5.5999999 -1.6,
                                  -0.1 5.5999999 -1.6,
                                  0.1 5.5999999 -1.6,
                                  -0.1 5.5999999 -1.8,
                                  0.1 5.5999999 -1.8,
                                  -0.1 5.5999999 -1.8,
                                  -0.30000001 5.4000001 -2,
                                  0.1 5.5999999 -1.8,
                                  0.30000001 5.4000001 -2,
                                  2.24 0.30000001 10.6,
                                  2.24 0.30000001 -0.89999998,
                                  2.8399999 0.30000001 10.6,
                                  2.8399999 0.30000001 -0.89999998,
                                  2.24 0.30000001 10.6,
                                  2.24 0.30000001 -0.89999998,
                                  2.24 -0.30000001 10.6,
                                  2.24 0.80000001 -1.4,
                                  2.24 0.31253603 -1.0112605,
                                  2.24 0.34951556 -1.1169419,
                                  2.24 0.40908426 -1.2117449,
                                  2.24 0.48825511 -1.2909157,
                                  2.24 0.58305812 -1.3504845,
                                  2.24 0.68873954 -1.3874639,
                                  2.24 -0.30000001 -1.5,
                                  2.24 5.4000001 -1.4,
                                  2.24 0.2 -2,
                                  2.24 0.088739537 -1.987464,
                                  2.24 -0.01694187 -1.9504844,
                                  2.24 -0.1117449 -1.8909158,
                                  2.24 -0.19091575 -1.8117449,
                                  2.24 -0.25048444 -1.7169418,
                                  2.24 -0.28746396 -1.6112604,
                                  2.24 5.4000001 -2,
                                  2.24 0.30000001 10.6,
                                  2.4400001 0.1 10.8,
                                  2.8399999 0.30000001 10.6,
                                  2.6400001 0.1 10.8,
                                  2.24 0.30000001 -0.89999998,
                                  2.24 0.80000001 -1.4,
                                  2.24 0.31253603 -1.0112605,
                                  2.24 0.34951556 -1.1169419,
                                  2.24 0.40908426 -1.2117449,
                                  2.24 0.48825511 -1.2909157,
                                  2.24 0.58305812 -1.3504845,
                                  2.24 0.68873954 -1.3874639,
                                  2.8399999 0.30000001 -0.89999998,
                                  2.8399999 0.80000001 -1.4,
                                  2.8399999 0.31253603 -1.0112605,
                                  2.8399999 0.34951556 -1.1169419,
                                  2.8399999 0.40908426 -1.2117449,
                                  2.8399999 0.48825511 -1.2909157,
                                  2.8399999 0.58305812 -1.3504845,
                                  2.8399999 0.68873954 -1.3874639,
                                  2.8399999 0.30000001 10.6,
                                  2.8399999 0.30000001 -0.89999998,
                                  2.8399999 -0.30000001 10.6,
                                  2.8399999 0.80000001 -1.4,
                                  2.8399999 0.31253603 -1.0112605,
                                  2.8399999 0.34951556 -1.1169419,
                                  2.8399999 0.40908426 -1.2117449,
                                  2.8399999 0.48825511 -1.2909157,
                                  2.8399999 0.58305812 -1.3504845,
                                  2.8399999 0.68873954 -1.3874639,
                                  2.8399999 -0.30000001 -1.5,
                                  2.8399999 5.4000001 -1.4,
                                  2.8399999 0.2 -2,
                                  2.8399999 0.088739537 -1.987464,
                                  2.8399999 -0.01694187 -1.9504844,
                                  2.8399999 -0.1117449 -1.8909158,
                                  2.8399999 -0.19091575 -1.8117449,
                                  2.8399999 -0.25048444 -1.7169418,
                                  2.8399999 -0.28746396 -1.6112604,
                                  2.8399999 5.4000001 -2,
                                  2.4400001 -0.1 10.8,
                                  2.24 -0.30000001 10.6,
                                  2.4400001 0.1 10.8,
                                  2.24 0.30000001 10.6,
                                  2.24 -0.30000001 -1.5,
                                  2.24 -0.30000001 10.6,
                                  2.8399999 -0.30000001 10.6,
                                  2.8399999 -0.30000001 -1.5,
                                  2.24 0.80000001 -1.4,
                                  2.24 5.4000001 -1.4,
                                  2.8399999 5.4000001 -1.4,
                                  2.8399999 0.80000001 -1.4,
                                  2.24 0.2 -2,
                                  2.24 -0.30000001 -1.5,
                                  2.24 0.088739537 -1.987464,
                                  2.24 -0.01694187 -1.9504844,
                                  2.24 -0.1117449 -1.8909158,
                                  2.24 -0.19091575 -1.8117449,
                                  2.24 -0.25048444 -1.7169418,
                                  2.24 -0.28746396 -1.6112604,
                                  2.8399999 0.2 -2,
                                  2.8399999 -0.30000001 -1.5,
                                  2.8399999 0.088739537 -1.987464,
                                  2.8399999 -0.01694187 -1.9504844,
                                  2.8399999 -0.1117449 -1.8909158,
                                  2.8399999 -0.19091575 -1.8117449,
                                  2.8399999 -0.25048444 -1.7169418,
                                  2.8399999 -0.28746396 -1.6112604,
                                  2.24 5.4000001 -1.4,
                                  2.4400001 5.5999999 -1.6,
                                  2.24 5.4000001 -2,
                                  2.4400001 5.5999999 -1.8,
                                  2.24 5.4000001 -2,
                                  2.24 0.2 -2,
                                  2.8399999 5.4000001 -2,
                                  2.8399999 0.2 -2,
                                  2.4400001 -0.1 10.8,
                                  2.6400001 -0.1 10.8,
                                  2.4400001 0.1 10.8,
                                  2.6400001 0.1 10.8,
                                  2.6400001 -0.1 10.8,
                                  2.8399999 -0.30000001 10.6,
                                  2.6400001 0.1 10.8,
                                  2.8399999 0.30000001 10.6,
                                  2.8399999 5.4000001 -1.4,
                                  2.6400001 5.5999999 -1.6,
                                  2.8399999 5.4000001 -2,
                                  2.6400001 5.5999999 -1.8,
                                  2.4400001 -0.1 10.8,
                                  2.24 -0.30000001 10.6,
                                  2.6400001 -0.1 10.8,
                                  2.8399999 -0.30000001 10.6,
                                  2.24 5.4000001 -1.4,
                                  2.4400001 5.5999999 -1.6,
                                  2.8399999 5.4000001 -1.4,
                                  2.6400001 5.5999999 -1.6,
                                  2.4400001 5.5999999 -1.6,
                                  2.6400001 5.5999999 -1.6,
                                  2.4400001 5.5999999 -1.8,
                                  2.6400001 5.5999999 -1.8,
                                  2.4400001 5.5999999 -1.8,
                                  2.24 5.4000001 -2,
                                  2.6400001 5.5999999 -1.8,
                                  2.8399999 5.4000001 -2,
                                  4.7800002 0.30000001 10.6,
                                  4.7800002 0.30000001 -0.89999998,
                                  5.3800001 0.30000001 10.6,
                                  5.3800001 0.30000001 -0.89999998,
                                  4.7800002 0.30000001 10.6,
                                  4.7800002 0.30000001 -0.89999998,
                                  4.7800002 -0.30000001 10.6,
                                  4.7800002 0.80000001 -1.4,
                                  4.7800002 0.31253603 -1.0112605,
                                  4.7800002 0.34951556 -1.1169419,
                                  4.7800002 0.40908426 -1.2117449,
                                  4.7800002 0.48825511 -1.2909157,
                                  4.7800002 0.58305812 -1.3504845,
                                  4.7800002 0.68873954 -1.3874639,
                                  4.7800002 -0.30000001 -1.5,
                                  4.7800002 5.4000001 -1.4,
                                  4.7800002 0.2 -2,
                                  4.7800002 0.088739537 -1.987464,
                                  4.7800002 -0.01694187 -1.9504844,
                                  4.7800002 -0.1117449 -1.8909158,
                                  4.7800002 -0.19091575 -1.8117449,
                                  4.7800002 -0.25048444 -1.7169418,
                                  4.7800002 -0.28746396 -1.6112604,
                                  4.7800002 5.4000001 -2,
                                  4.7800002 0.30000001 10.6,
                                  4.98 0.1 10.8,
                                  5.3800001 0.30000001 10.6,
                                  5.1799998 0.1 10.8,
                                  4.7800002 0.30000001 -0.89999998,
                                  4.7800002 0.80000001 -1.4,
                                  4.7800002 0.31253603 -1.0112605,
                                  4.7800002 0.34951556 -1.1169419,
                                  4.7800002 0.40908426 -1.2117449,
                                  4.7800002 0.48825511 -1.2909157,
                                  4.7800002 0.58305812 -1.3504845,
                                  4.7800002 0.68873954 -1.3874639,
                                  5.3800001 0.30000001 -0.89999998,
                                  5.3800001 0.80000001 -1.4,
                                  5.3800001 0.31253603 -1.0112605,
                                  5.3800001 0.34951556 -1.1169419,
                                  5.3800001 0.40908426 -1.2117449,
                                  5.3800001 0.48825511 -1.2909157,
                                  5.3800001 0.58305812 -1.3504845,
                                  5.3800001 0.68873954 -1.3874639,
                                  5.3800001 0.30000001 10.6,
                                  5.3800001 0.30000001 -0.89999998,
                                  5.3800001 -0.30000001 10.6,
                                  5.3800001 0.80000001 -1.4,
                                  5.3800001 0.31253603 -1.0112605,
                                  5.3800001 0.34951556 -1.1169419,
                                  5.3800001 0.40908426 -1.2117449,
                                  5.3800001 0.48825511 -1.2909157,
                                  5.3800001 0.58305812 -1.3504845,
                                  5.3800001 0.68873954 -1.3874639,
                                  5.3800001 -0.30000001 -1.5,
                                  5.3800001 5.4000001 -1.4,
                                  5.3800001 0.2 -2,
                                  5.3800001 0.088739537 -1.987464,
                                  5.3800001 -0.01694187 -1.9504844,
                                  5.3800001 -0.1117449 -1.8909158,
                                  5.3800001 -0.19091575 -1.8117449,
                                  5.3800001 -0.25048444 -1.7169418,
                                  5.3800001 -0.28746396 -1.6112604,
                                  5.3800001 5.4000001 -2,
                                  4.98 -0.1 10.8,
                                  4.7800002 -0.30000001 10.6,
                                  4.98 0.1 10.8,
                                  4.7800002 0.30000001 10.6,
                                  4.7800002 -0.30000001 -1.5,
                                  4.7800002 -0.30000001 10.6,
                                  5.3800001 -0.30000001 10.6,
                                  5.3800001 -0.30000001 -1.5,
                                  4.7800002 0.80000001 -1.4,
                                  4.7800002 5.4000001 -1.4,
                                  5.3800001 5.4000001 -1.4,
                                  5.3800001 0.80000001 -1.4,
                                  4.7800002 0.2 -2,
                                  4.7800002 -0.30000001 -1.5,
                                  4.7800002 0.088739537 -1.987464,
                                  4.7800002 -0.01694187 -1.9504844,
                                  4.7800002 -0.1117449 -1.8909158,
                                  4.7800002 -0.19091575 -1.8117449,
                                  4.7800002 -0.25048444 -1.7169418,
                                  4.7800002 -0.28746396 -1.6112604,
                                  5.3800001 0.2 -2,
                                  5.3800001 -0.30000001 -1.5,
                                  5.3800001 0.088739537 -1.987464,
                                  5.3800001 -0.01694187 -1.9504844,
                                  5.3800001 -0.1117449 -1.8909158,
                                  5.3800001 -0.19091575 -1.8117449,
                                  5.3800001 -0.25048444 -1.7169418,
                                  5.3800001 -0.28746396 -1.6112604,
                                  4.7800002 5.4000001 -1.4,
                                  4.98 5.5999999 -1.6,
                                  4.7800002 5.4000001 -2,
                                  4.98 5.5999999 -1.8,
                                  4.7800002 5.4000001 -2,
                                  4.7800002 0.2 -2,
                                  5.3800001 5.4000001 -2,
                                  5.3800001 0.2 -2,
                                  4.98 -0.1 10.8,
                                  5.1799998 -0.1 10.8,
                                  4.98 0.1 10.8,
                                  5.1799998 0.1 10.8,
                                  5.1799998 -0.1 10.8,
                                  5.3800001 -0.30000001 10.6,
                                  5.1799998 0.1 10.8,
                                  5.3800001 0.30000001 10.6,
                                  5.3800001 5.4000001 -1.4,
                                  5.1799998 5.5999999 -1.6,
                                  5.3800001 5.4000001 -2,
                                  5.1799998 5.5999999 -1.8,
                                  4.98 -0.1 10.8,
                                  4.7800002 -0.30000001 10.6,
                                  5.1799998 -0.1 10.8,
                                  5.3800001 -0.30000001 10.6,
                                  4.7800002 5.4000001 -1.4,
                                  4.98 5.5999999 -1.6,
                                  5.3800001 5.4000001 -1.4,
                                  5.1799998 5.5999999 -1.6,
                                  4.98 5.5999999 -1.6,
                                  5.1799998 5.5999999 -1.6,
                                  4.98 5.5999999 -1.8,
                                  5.1799998 5.5999999 -1.8,
                                  4.98 5.5999999 -1.8,
                                  4.7800002 5.4000001 -2,
                                  5.1799998 5.5999999 -1.8,
                                  5.3800001 5.4000001 -2,
                                  7.3200002 0.30000001 10.6,
                                  7.3200002 0.30000001 -0.89999998,
                                  7.9200001 0.30000001 10.6,
                                  7.9200001 0.30000001 -0.89999998,
                                  7.3200002 0.30000001 10.6,
                                  7.3200002 0.30000001 -0.89999998,
                                  7.3200002 -0.30000001 10.6,
                                  7.3200002 0.80000001 -1.4,
                                  7.3200002 0.31253603 -1.0112605,
                                  7.3200002 0.34951556 -1.1169419,
                                  7.3200002 0.40908426 -1.2117449,
                                  7.3200002 0.48825511 -1.2909157,
                                  7.3200002 0.58305812 -1.3504845,
                                  7.3200002 0.68873954 -1.3874639,
                                  7.3200002 -0.30000001 -1.5,
                                  7.3200002 5.4000001 -1.4,
                                  7.3200002 0.2 -2,
                                  7.3200002 0.088739537 -1.987464,
                                  7.3200002 -0.01694187 -1.9504844,
                                  7.3200002 -0.1117449 -1.8909158,
                                  7.3200002 -0.19091575 -1.8117449,
                                  7.3200002 -0.25048444 -1.7169418,
                                  7.3200002 -0.28746396 -1.6112604,
                                  7.3200002 5.4000001 -2,
                                  7.3200002 0.30000001 10.6,
                                  7.52 0.1 10.8,
                                  7.9200001 0.30000001 10.6,
                                  7.7199998 0.1 10.8,
                                  7.3200002 0.30000001 -0.89999998,
                                  7.3200002 0.80000001 -1.4,
                                  7.3200002 0.31253603 -1.0112605,
                                  7.3200002 0.34951556 -1.1169419,
                                  7.3200002 0.40908426 -1.2117449,
                                  7.3200002 0.48825511 -1.2909157,
                                  7.3200002 0.58305812 -1.3504845,
                                  7.3200002 0.68873954 -1.3874639,
                                  7.9200001 0.30000001 -0.89999998,
                                  7.9200001 0.80000001 -1.4,
                                  7.9200001 0.31253603 -1.0112605,
                                  7.9200001 0.34951556 -1.1169419,
                                  7.9200001 0.40908426 -1.2117449,
                                  7.9200001 0.48825511 -1.2909157,
                                  7.9200001 0.58305812 -1.3504845,
                                  7.9200001 0.68873954 -1.3874639,
                                  7.9200001 0.30000001 10.6,
                                  7.9200001 0.30000001 -0.89999998,
                                  7.9200001 -0.30000001 10.6,
                                  7.9200001 0.80000001 -1.4,
                                  7.9200001 0.31253603 -1.0112605,
                                  7.9200001 0.34951556 -1.1169419,
                                  7.9200001 0.40908426 -1.2117449,
                                  7.9200001 0.48825511 -1.2909157,
                                  7.9200001 0.58305812 -1.3504845,
                                  7.9200001 0.68873954 -1.3874639,
                                  7.9200001 -0.30000001 -1.5,
                                  7.9200001 5.4000001 -1.4,
                                  7.9200001 0.2 -2,
                                  7.9200001 0.088739537 -1.987464,
                                  7.9200001 -0.01694187 -1.9504844,
                                  7.9200001 -0.1117449 -1.8909158,
                                  7.9200001 -0.19091575 -1.8117449,
                                  7.9200001 -0.25048444 -1.7169418,
                                  7.9200001 -0.28746396 -1.6112604,
                                  7.9200001 5.4000001 -2,
                                  7.52 -0.1 10.8,
                                  7.3200002 -0.30000001 10.6,
                                  7.52 0.1 10.8,
                                  7.3200002 0.30000001 10.6,
                                  7.3200002 -0.30000001 -1.5,
                                  7.3200002 -0.30000001 10.6,
                                  7.9200001 -0.30000001 10.6,
                                  7.9200001 -0.30000001 -1.5,
                                  7.3200002 0.80000001 -1.4,
                                  7.3200002 5.4000001 -1.4,
                                  7.9200001 5.4000001 -1.4,
                                  7.9200001 0.80000001 -1.4,
                                  7.3200002 0.2 -2,
                                  7.3200002 -0.30000001 -1.5,
                                  7.3200002 0.088739537 -1.987464,
                                  7.3200002 -0.01694187 -1.9504844,
                                  7.3200002 -0.1117449 -1.8909158,
                                  7.3200002 -0.19091575 -1.8117449,
                                  7.3200002 -0.25048444 -1.7169418,
                                  7.3200002 -0.28746396 -1.6112604,
                                  7.9200001 0.2 -2,
                                  7.9200001 -0.30000001 -1.5,
                                  7.9200001 0.088739537 -1.987464,
                                  7.9200001 -0.01694187 -1.9504844,
                                  7.9200001 -0.1117449 -1.8909158,
                                  7.9200001 -0.19091575 -1.8117449,
                                  7.9200001 -0.25048444 -1.7169418,
                                  7.9200001 -0.28746396 -1.6112604,
                                  7.3200002 5.4000001 -1.4,
                                  7.52 5.5999999 -1.6,
                                  7.3200002 5.4000001 -2,
                                  7.52 5.5999999 -1.8,
                                  7.3200002 5.4000001 -2,
                                  7.3200002 0.2 -2,
                                  7.9200001 5.4000001 -2,
                                  7.9200001 0.2 -2,
                                  7.52 -0.1 10.8,
                                  7.7199998 -0.1 10.8,
                                  7.52 0.1 10.8,
                                  7.7199998 0.1 10.8,
                                  7.7199998 -0.1 10.8,
                                  7.9200001 -0.30000001 10.6,
                                  7.7199998 0.1 10.8,
                                  7.9200001 0.30000001 10.6,
                                  7.9200001 5.4000001 -1.4,
                                  7.7199998 5.5999999 -1.6,
                                  7.9200001 5.4000001 -2,
                                  7.7199998 5.5999999 -1.8,
                                  7.52 -0.1 10.8,
                                  7.3200002 -0.30000001 10.6,
                                  7.7199998 -0.1 10.8,
                                  7.9200001 -0.30000001 10.6,
                                  7.3200002 5.4000001 -1.4,
                                  7.52 5.5999999 -1.6,
                                  7.9200001 5.4000001 -1.4,
                                  7.7199998 5.5999999 -1.6,
                                  7.52 5.5999999 -1.6,
                                  7.7199998 5.5999999 -1.6,
                                  7.52 5.5999999 -1.8,
                                  7.7199998 5.5999999 -1.8,
                                  7.52 5.5999999 -1.8,
                                  7.3200002 5.4000001 -2,
                                  7.7199998 5.5999999 -1.8,
                                  7.9200001 5.4000001 -2,
                                  -0.30000001 0.30000001 10.6,
                                  -0.30000001 0.30000001 -0.89999998,
                                  0.30000001 0.30000001 10.6,
                                  0.30000001 0.30000001 -0.89999998,
                                  -0.30000001 -0.30000001 10.6,
                                  -0.30000001 0.80000001 -1.4,
                                  -0.30000001 -0.30000001 -1.5,
                                  -0.30000001 5.4000001 -1.4,
                                  -0.30000001 0.2 -2,
                                  -0.30000001 5.4000001 -2,
                                  -0.1 0.1 10.8,
                                  0.1 0.1 10.8,
                                  0.30000001 0.80000001 -1.4,
                                  0.30000001 -0.30000001 10.6,
                                  0.30000001 -0.30000001 -1.5,
                                  0.30000001 5.4000001 -1.4,
                                  0.30000001 0.2 -2,
                                  0.30000001 5.4000001 -2,
                                  -0.1 -0.1 10.8,
                                  -0.1 5.5999999 -1.6,
                                  -0.1 5.5999999 -1.8,
                                  0.1 -0.1 10.8,
                                  0.1 5.5999999 -1.6,
                                  0.1 5.5999999 -1.8,
                                  2.24 0.30000001 10.6,
                                  2.24 0.30000001 -0.89999998,
                                  2.8399999 0.30000001 10.6,
                                  2.8399999 0.30000001 -0.89999998,
                                  2.24 -0.30000001 10.6,
                                  2.24 0.80000001 -1.4,
                                  2.24 -0.30000001 -1.5,
                                  2.24 5.4000001 -1.4,
                                  2.24 0.2 -2,
                                  2.24 5.4000001 -2,
                                  2.4400001 0.1 10.8,
                                  2.6400001 0.1 10.8,
                                  2.8399999 0.80000001 -1.4,
                                  2.8399999 -0.30000001 10.6,
                                  2.8399999 -0.30000001 -1.5,
                                  2.8399999 5.4000001 -1.4,
                                  2.8399999 0.2 -2,
                                  2.8399999 5.4000001 -2,
                                  2.4400001 -0.1 10.8,
                                  2.4400001 5.5999999 -1.6,
                                  2.4400001 5.5999999 -1.8,
                                  2.6400001 -0.1 10.8,
                                  2.6400001 5.5999999 -1.6,
                                  2.6400001 5.5999999 -1.8,
                                  4.7800002 0.30000001 10.6,
                                  4.7800002 0.30000001 -0.89999998,
                                  5.3800001 0.30000001 10.6,
                                  5.3800001 0.30000001 -0.89999998,
                                  4.7800002 -0.30000001 10.6,
                                  4.7800002 0.80000001 -1.4,
                                  4.7800002 -0.30000001 -1.5,
                                  4.7800002 5.4000001 -1.4,
                                  4.7800002 0.2 -2,
                                  4.7800002 5.4000001 -2,
                                  4.98 0.1 10.8,
                                  5.1799998 0.1 10.8,
                                  5.3800001 0.80000001 -1.4,
                                  5.3800001 -0.30000001 10.6,
                                  5.3800001 -0.30000001 -1.5,
                                  5.3800001 5.4000001 -1.4,
                                  5.3800001 0.2 -2,
                                  5.3800001 5.4000001 -2,
                                  4.98 -0.1 10.8,
                                  4.98 5.5999999 -1.6,
                                  4.98 5.5999999 -1.8,
                                  5.1799998 -0.1 10.8,
                                  5.1799998 5.5999999 -1.6,
                                  5.1799998 5.5999999 -1.8,
                                  7.3200002 0.30000001 10.6,
                                  7.3200002 0.30000001 -0.89999998,
                                  7.9200001 0.30000001 10.6,
                                  7.9200001 0.30000001 -0.89999998,
                                  7.3200002 -0.30000001 10.6,
                                  7.3200002 0.80000001 -1.4,
                                  7.3200002 -0.30000001 -1.5,
                                  7.3200002 5.4000001 -1.4,
                                  7.3200002 0.2 -2,
                                  7.3200002 5.4000001 -2,
                                  7.52 0.1 10.8,
                                  7.7199998 0.1 10.8,
                                  7.9200001 0.80000001 -1.4,
                                  7.9200001 -0.30000001 10.6,
                                  7.9200001 -0.30000001 -1.5,
                                  7.9200001 5.4000001 -1.4,
                                  7.9200001 0.2 -2,
                                  7.9200001 5.4000001 -2,
                                  7.52 -0.1 10.8,
                                  7.52 5.5999999 -1.6,
                                  7.52 5.5999999 -1.8,
                                  7.7199998 -0.1 10.8,
                                  7.7199998 5.5999999 -1.6,
                                  7.7199998 5.5999999 -1.8 ]

                            }
                            coordIndex [ 0, 1, -1, 0, 2, -1, 1, 3,
                                -1, 2, 3, -1, 6, 4, -1, 5,
                                8, 9, 10, 11, 12, 13, 7, -1,
                                14, 6, -1, 7, 15, -1, 16, 17,
                                18, 19, 20, 21, 22, 14, -1, 15,
                                23, -1, 23, 16, -1, 24, 25, -1,
                                25, 27, -1, 26, 27, -1, 29, 37,
                                -1, 36, 38, 39, 40, 41, 42, 43,
                                37, -1, 46, 44, -1, 54, 46, -1,
                                47, 55, -1, 56, 57, 58, 59, 60,
                                61, 62, 54, -1, 55, 63, -1, 63,
                                56, -1, 64, 65, -1, 64, 66, -1,
                                69, 70, -1, 68, 71, -1, 73, 74,
                                -1, 76, 84, -1, 92, 93, -1, 93,
                                95, -1, 95, 94, -1, 96, 98, -1,
                                100, 101, -1, 101, 103, -1, 104, 105,
                                -1, 108, 109, -1, 109, 111, -1, 111,
                                110, -1, 117, 119, -1, 122, 123, -1,
                                128, 129, -1, 128, 130, -1, 129, 131,
                                -1, 130, 131, -1, 134, 132, -1, 133,
                                136, 137, 138, 139, 140, 141, 135, -1,
                                142, 134, -1, 135, 143, -1, 144, 145,
                                146, 147, 148, 149, 150, 142, -1, 143,
                                151, -1, 151, 144, -1, 152, 153, -1,
                                153, 155, -1, 154, 155, -1, 157, 165,
                                -1, 164, 166, 167, 168, 169, 170, 171,
                                165, -1, 174, 172, -1, 182, 174, -1,
                                175, 183, -1, 184, 185, 186, 187, 188,
                                189, 190, 182, -1, 183, 191, -1, 191,
                                184, -1, 192, 193, -1, 192, 194, -1,
                                197, 198, -1, 196, 199, -1, 201, 202,
                                -1, 204, 212, -1, 220, 221, -1, 221,
                                223, -1, 223, 222, -1, 224, 226, -1,
                                228, 229, -1, 229, 231, -1, 232, 233,
                                -1, 236, 237, -1, 237, 239, -1, 239,
                                238, -1, 245, 247, -1, 250, 251, -1,
                                256, 257, -1, 256, 258, -1, 257, 259,
                                -1, 258, 259, -1, 262, 260, -1, 261,
                                264, 265, 266, 267, 268, 269, 263, -1,
                                270, 262, -1, 263, 271, -1, 272, 273,
                                274, 275, 276, 277, 278, 270, -1, 271,
                                279, -1, 279, 272, -1, 280, 281, -1,
                                281, 283, -1, 282, 283, -1, 285, 293,
                                -1, 292, 294, 295, 296, 297, 298, 299,
                                293, -1, 302, 300, -1, 310, 302, -1,
                                303, 311, -1, 312, 313, 314, 315, 316,
                                317, 318, 310, -1, 311, 319, -1, 319,
                                312, -1, 320, 321, -1, 320, 322, -1,
                                325, 326, -1, 324, 327, -1, 329, 330,
                                -1, 332, 340, -1, 348, 349, -1, 349,
                                351, -1, 351, 350, -1, 352, 354, -1,
                                356, 357, -1, 357, 359, -1, 360, 361,
                                -1, 364, 365, -1, 365, 367, -1, 367,
                                366, -1, 373, 375, -1, 378, 379, -1,
                                384, 385, -1, 384, 386, -1, 385, 387,
                                -1, 386, 387, -1, 390, 388, -1, 389,
                                392, 393, 394, 395, 396, 397, 391, -1,
                                398, 390, -1, 391, 399, -1, 400, 401,
                                402, 403, 404, 405, 406, 398, -1, 399,
                                407, -1, 407, 400, -1, 408, 409, -1,
                                409, 411, -1, 410, 411, -1, 413, 421,
                                -1, 420, 422, 423, 424, 425, 426, 427,
                                421, -1, 430, 428, -1, 438, 430, -1,
                                431, 439, -1, 440, 441, 442, 443, 444,
                                445, 446, 438, -1, 439, 447, -1, 447,
                                440, -1, 448, 449, -1, 448, 450, -1,
                                453, 454, -1, 452, 455, -1, 457, 458,
                                -1, 460, 468, -1, 476, 477, -1, 477,
                                479, -1, 479, 478, -1, 480, 482, -1,
                                484, 485, -1, 485, 487, -1, 488, 489,
                                -1, 492, 493, -1, 493, 495, -1, 495,
                                494, -1, 501, 503, -1, 506, 507, -1 ]

                          }

                        }

                    },
                      
                    DEF o7 Group {
                      children 
                        DEF o8 Shape {
                          appearance 
                          Appearance {
                            material 
                            Material {

                            }

                          }
                          geometry 
                          IndexedFaceSet {
                            coord 
                            USE o6
                            coordIndex [ 1, 0, 2, -1, 1, 2, 3, -1,
                                7, 15, 23, -1, 16, 7, 23, -1,
                                13, 7, 16, -1, 12, 13, 16, -1,
                                11, 16, 17, -1, 11, 17, 18, -1,
                                11, 12, 16, -1, 19, 11, 18, -1,
                                20, 10, 11, -1, 20, 11, 19, -1,
                                21, 10, 20, -1, 22, 10, 21, -1,
                                14, 8, 9, -1, 14, 9, 10, -1,
                                14, 10, 22, -1, 5, 8, 14, -1,
                                6, 4, 5, -1, 6, 5, 14, -1,
                                25, 27, 24, -1, 24, 27, 26, -1,
                                28, 38, 30, -1, 36, 38, 28, -1,
                                30, 39, 31, -1, 38, 39, 30, -1,
                                31, 40, 32, -1, 39, 40, 31, -1,
                                32, 41, 33, -1, 40, 41, 32, -1,
                                33, 42, 34, -1, 41, 42, 33, -1,
                                34, 43, 35, -1, 35, 43, 29, -1,
                                42, 43, 34, -1, 43, 37, 29, -1,
                                55, 47, 63, -1, 47, 56, 63, -1,
                                47, 53, 56, -1, 53, 52, 56, -1,
                                56, 51, 57, -1, 57, 51, 58, -1,
                                52, 51, 56, -1, 51, 59, 58, -1,
                                50, 60, 51, -1, 51, 60, 59, -1,
                                50, 61, 60, -1, 50, 62, 61, -1,
                                48, 54, 49, -1, 49, 54, 50, -1,
                                50, 54, 62, -1, 48, 45, 54, -1,
                                44, 46, 45, -1, 45, 46, 54, -1,
                                64, 66, 65, -1, 65, 66, 67, -1,
                                69, 68, 71, -1, 69, 71, 70, -1,
                                73, 72, 75, -1, 73, 75, 74, -1,
                                76, 86, 78, -1, 84, 86, 76, -1,
                                78, 87, 79, -1, 86, 87, 78, -1,
                                79, 88, 80, -1, 87, 88, 79, -1,
                                80, 89, 81, -1, 88, 89, 80, -1,
                                81, 90, 82, -1, 89, 90, 81, -1,
                                82, 91, 83, -1, 83, 91, 77, -1,
                                90, 91, 82, -1, 91, 85, 77, -1,
                                93, 95, 92, -1, 92, 95, 94, -1,
                                97, 96, 98, -1, 97, 98, 99, -1,
                                102, 100, 101, -1, 102, 101, 103, -1,
                                105, 106, 104, -1, 105, 107, 106, -1,
                                111, 109, 108, -1, 111, 108, 110, -1,
                                113, 115, 112, -1, 112, 115, 114, -1,
                                119, 117, 116, -1, 119, 116, 118, -1,
                                122, 120, 121, -1, 122, 121, 123, -1,
                                127, 125, 124, -1, 127, 124, 126, -1,
                                129, 128, 130, -1, 129, 130, 131, -1,
                                135, 143, 151, -1, 144, 135, 151, -1,
                                141, 135, 144, -1, 140, 141, 144, -1,
                                139, 144, 145, -1, 139, 145, 146, -1,
                                139, 140, 144, -1, 147, 139, 146, -1,
                                148, 138, 139, -1, 148, 139, 147, -1,
                                149, 138, 148, -1, 150, 138, 149, -1,
                                142, 136, 137, -1, 142, 137, 138, -1,
                                142, 138, 150, -1, 133, 136, 142, -1,
                                134, 132, 133, -1, 134, 133, 142, -1,
                                153, 155, 152, -1, 152, 155, 154, -1,
                                156, 166, 158, -1, 164, 166, 156, -1,
                                158, 167, 159, -1, 166, 167, 158, -1,
                                159, 168, 160, -1, 167, 168, 159, -1,
                                160, 169, 161, -1, 168, 169, 160, -1,
                                161, 170, 162, -1, 169, 170, 161, -1,
                                162, 171, 163, -1, 163, 171, 157, -1,
                                170, 171, 162, -1, 171, 165, 157, -1,
                                183, 175, 191, -1, 175, 184, 191, -1,
                                175, 181, 184, -1, 181, 180, 184, -1,
                                184, 179, 185, -1, 185, 179, 186, -1,
                                180, 179, 184, -1, 179, 187, 186, -1,
                                178, 188, 179, -1, 179, 188, 187, -1,
                                178, 189, 188, -1, 178, 190, 189, -1,
                                176, 182, 177, -1, 177, 182, 178, -1,
                                178, 182, 190, -1, 176, 173, 182, -1,
                                172, 174, 173, -1, 173, 174, 182, -1,
                                192, 194, 193, -1, 193, 194, 195, -1,
                                197, 196, 199, -1, 197, 199, 198, -1,
                                201, 200, 203, -1, 201, 203, 202, -1,
                                204, 214, 206, -1, 212, 214, 204, -1,
                                206, 215, 207, -1, 214, 215, 206, -1,
                                207, 216, 208, -1, 215, 216, 207, -1,
                                208, 217, 209, -1, 216, 217, 208, -1,
                                209, 218, 210, -1, 217, 218, 209, -1,
                                210, 219, 211, -1, 211, 219, 205, -1,
                                218, 219, 210, -1, 219, 213, 205, -1,
                                221, 223, 220, -1, 220, 223, 222, -1,
                                225, 224, 226, -1, 225, 226, 227, -1,
                                230, 228, 229, -1, 230, 229, 231, -1,
                                233, 234, 232, -1, 233, 235, 234, -1,
                                239, 237, 236, -1, 239, 236, 238, -1,
                                241, 243, 240, -1, 240, 243, 242, -1,
                                247, 245, 244, -1, 247, 244, 246, -1,
                                250, 248, 249, -1, 250, 249, 251, -1,
                                255, 253, 252, -1, 255, 252, 254, -1,
                                257, 256, 258, -1, 257, 258, 259, -1,
                                263, 271, 279, -1, 272, 263, 279, -1,
                                269, 263, 272, -1, 268, 269, 272, -1,
                                267, 272, 273, -1, 267, 273, 274, -1,
                                267, 268, 272, -1, 275, 267, 274, -1,
                                276, 266, 267, -1, 276, 267, 275, -1,
                                277, 266, 276, -1, 278, 266, 277, -1,
                                270, 264, 265, -1, 270, 265, 266, -1,
                                270, 266, 278, -1, 261, 264, 270, -1,
                                262, 260, 261, -1, 262, 261, 270, -1,
                                281, 283, 280, -1, 280, 283, 282, -1,
                                284, 294, 286, -1, 292, 294, 284, -1,
                                286, 295, 287, -1, 294, 295, 286, -1,
                                287, 296, 288, -1, 295, 296, 287, -1,
                                288, 297, 289, -1, 296, 297, 288, -1,
                                289, 298, 290, -1, 297, 298, 289, -1,
                                290, 299, 291, -1, 291, 299, 285, -1,
                                298, 299, 290, -1, 299, 293, 285, -1,
                                311, 303, 319, -1, 303, 312, 319, -1,
                                303, 309, 312, -1, 309, 308, 312, -1,
                                312, 307, 313, -1, 313, 307, 314, -1,
                                308, 307, 312, -1, 307, 315, 314, -1,
                                306, 316, 307, -1, 307, 316, 315, -1,
                                306, 317, 316, -1, 306, 318, 317, -1,
                                304, 310, 305, -1, 305, 310, 306, -1,
                                306, 310, 318, -1, 304, 301, 310, -1,
                                300, 302, 301, -1, 301, 302, 310, -1,
                                320, 322, 321, -1, 321, 322, 323, -1,
                                325, 324, 327, -1, 325, 327, 326, -1,
                                329, 328, 331, -1, 329, 331, 330, -1,
                                332, 342, 334, -1, 340, 342, 332, -1,
                                334, 343, 335, -1, 342, 343, 334, -1,
                                335, 344, 336, -1, 343, 344, 335, -1,
                                336, 345, 337, -1, 344, 345, 336, -1,
                                337, 346, 338, -1, 345, 346, 337, -1,
                                338, 347, 339, -1, 339, 347, 333, -1,
                                346, 347, 338, -1, 347, 341, 333, -1,
                                349, 351, 348, -1, 348, 351, 350, -1,
                                353, 352, 354, -1, 353, 354, 355, -1,
                                358, 356, 357, -1, 358, 357, 359, -1,
                                361, 362, 360, -1, 361, 363, 362, -1,
                                367, 365, 364, -1, 367, 364, 366, -1,
                                369, 371, 368, -1, 368, 371, 370, -1,
                                375, 373, 372, -1, 375, 372, 374, -1,
                                378, 376, 377, -1, 378, 377, 379, -1,
                                383, 381, 380, -1, 383, 380, 382, -1,
                                385, 384, 386, -1, 385, 386, 387, -1,
                                391, 399, 407, -1, 400, 391, 407, -1,
                                397, 391, 400, -1, 396, 397, 400, -1,
                                395, 400, 401, -1, 395, 401, 402, -1,
                                395, 396, 400, -1, 403, 395, 402, -1,
                                404, 394, 395, -1, 404, 395, 403, -1,
                                405, 394, 404, -1, 406, 394, 405, -1,
                                398, 392, 393, -1, 398, 393, 394, -1,
                                398, 394, 406, -1, 389, 392, 398, -1,
                                390, 388, 389, -1, 390, 389, 398, -1,
                                409, 411, 408, -1, 408, 411, 410, -1,
                                412, 422, 414, -1, 420, 422, 412, -1,
                                414, 423, 415, -1, 422, 423, 414, -1,
                                415, 424, 416, -1, 423, 424, 415, -1,
                                416, 425, 417, -1, 424, 425, 416, -1,
                                417, 426, 418, -1, 425, 426, 417, -1,
                                418, 427, 419, -1, 419, 427, 413, -1,
                                426, 427, 418, -1, 427, 421, 413, -1,
                                439, 431, 447, -1, 431, 440, 447, -1,
                                431, 437, 440, -1, 437, 436, 440, -1,
                                440, 435, 441, -1, 441, 435, 442, -1,
                                436, 435, 440, -1, 435, 443, 442, -1,
                                434, 444, 435, -1, 435, 444, 443, -1,
                                434, 445, 444, -1, 434, 446, 445, -1,
                                432, 438, 433, -1, 433, 438, 434, -1,
                                434, 438, 446, -1, 432, 429, 438, -1,
                                428, 430, 429, -1, 429, 430, 438, -1,
                                448, 450, 449, -1, 449, 450, 451, -1,
                                453, 452, 455, -1, 453, 455, 454, -1,
                                457, 456, 459, -1, 457, 459, 458, -1,
                                460, 470, 462, -1, 468, 470, 460, -1,
                                462, 471, 463, -1, 470, 471, 462, -1,
                                463, 472, 464, -1, 471, 472, 463, -1,
                                464, 473, 465, -1, 472, 473, 464, -1,
                                465, 474, 466, -1, 473, 474, 465, -1,
                                466, 475, 467, -1, 467, 475, 461, -1,
                                474, 475, 466, -1, 475, 469, 461, -1,
                                477, 479, 476, -1, 476, 479, 478, -1,
                                481, 480, 482, -1, 481, 482, 483, -1,
                                486, 484, 485, -1, 486, 485, 487, -1,
                                489, 490, 488, -1, 489, 491, 490, -1,
                                495, 493, 492, -1, 495, 492, 494, -1,
                                497, 499, 496, -1, 496, 499, 498, -1,
                                503, 501, 500, -1, 503, 500, 502, -1,
                                506, 504, 505, -1, 506, 505, 507, -1,
                                511, 509, 508, -1, 511, 508, 510, -1 ]
                            ccw TRUE
                            solid FALSE
                            convex TRUE
                            creaseAngle 0

                          }

                        }

                    },
                      
                    DEF o9 Group {
                      children 
                        DEF o10 Shape {
                          appearance 
                          Appearance {
                            material 
                            Material {

                            }

                          }
                          geometry 
                          PointSet {
                            coord 
                            USE o6

                          }

                        }

                    } ]

                }

            }

        },
          
        DEF o11 Group {
          children 
            DEF o12 Transform {
              translation 0 0 0
              rotation 0 0 1  0
              scale 1 1 1
              scaleOrientation 0 0 1  0
              center 0 0 0
              children [ 
                DEF o13 Group {
                  children 
                    DEF o14 Transform {
                      translation 0 0 0
                      rotation 0 0 1  0
                      scale 1 1 1
                      scaleOrientation 0 0 1  0
                      center 0 0 0

                    }

                },
                  
                DEF o15 Group {
                  children 
                    DEF o16 Transform {
                      translation 0 0 0
                      rotation 0 0 1  0
                      scale 1 1 1
                      scaleOrientation 0 0 1  0
                      center 0 0 0
                      children 
                        DEF o17 Group {

                        }

                    }

                },
                  
                DEF o18 Group {
                  children 
                    DEF o19 Transform {
                      translation 0 0 0
                      rotation 0 0 1  0
                      scale 1 1 1
                      scaleOrientation 0 0 1  0
                      center 0 0 0

                    }

                },
                  
                DEF o20 Group {
                  children 
                    DEF o21 Transform {
                      translation 0 0 3.3
                      rotation 0 0 1  0
                      scale 1 1 1
                      scaleOrientation 0 0 1  0
                      center 0 0 0
                      children 
                        DEF o22 Group {

                        }

                    }

                },
                  
                DEF o23 Group {
                  children 
                    DEF o24 Transform {
                      translation 0 0 0
                      rotation 0 0 1  0
                      scale 1 1 1
                      scaleOrientation 0 0 1  0
                      center 0 0 0

                    }

                },
                  
                DEF o25 Group {
                  children 
                    DEF o26 Transform {
                      translation 0 0 0
                      rotation 0 0 1  0
                      scale 1 1 1
                      scaleOrientation 0 0 1  0
                      center 0 0 0
                      children 
                        DEF o27 Group {
                          children [ 
                            DEF o28 Group {
                              children 
                                DEF o29 Shape {
                                  appearance 
                                  Appearance {
                                    material 
                                    Material {
                                      diffuseColor 0.098039217 0.098039217 0.098039217
                                      shininess 1

                                    }

                                  }
                                  geometry 
                                  IndexedLineSet {
                                    coord 
                                    DEF o30 Coordinate {
                                      point [ -0.28999999 2.5999999 3.3,
                                          -0.28999999 2.5999999 11,
                                          0.20999999 2.5999999 11.5,
                                          -0.27746394 2.5999999 11.11126,
                                          -0.24048443 2.5999999 11.216942,
                                          -0.18091574 2.5999999 11.311745,
                                          -0.1017449 2.5999999 11.390916,
                                          -0.0069418694 2.5999999 11.450484,
                                          0.098739535 2.5999999 11.487464,
                                          7.9099998 2.5999999 3.3,
                                          7.4099998 2.5999999 11.5,
                                          7.9099998 2.5999999 11,
                                          7.8974638 2.5999999 11.11126,
                                          7.8604846 2.5999999 11.216942,
                                          7.8009157 2.5999999 11.311745,
                                          7.721745 2.5999999 11.390916,
                                          7.6269417 2.5999999 11.450484,
                                          7.5212603 2.5999999 11.487464,
                                          -0.28999999 1.8 3.3,
                                          -0.28999999 1.8 11,
                                          -0.28999999 2.5999999 11,
                                          -0.28999999 2.5999999 3.3,
                                          -0.28999999 1.8 11,
                                          0.20999999 1.8 11.5,
                                          -0.27746394 1.8 11.11126,
                                          -0.24048443 1.8 11.216942,
                                          -0.18091574 1.8 11.311745,
                                          -0.1017449 1.8 11.390916,
                                          -0.0069418694 1.8 11.450484,
                                          0.098739535 1.8 11.487464,
                                          -0.28999999 2.5999999 11,
                                          0.20999999 2.5999999 11.5,
                                          -0.27746394 2.5999999 11.11126,
                                          -0.24048443 2.5999999 11.216942,
                                          -0.18091574 2.5999999 11.311745,
                                          -0.1017449 2.5999999 11.390916,
                                          -0.0069418694 2.5999999 11.450484,
                                          0.098739535 2.5999999 11.487464,
                                          -1.29 2.5999999 0,
                                          -1.29 2.5999999 3.3,
                                          8.9099998 2.5999999 0,
                                          8.9099998 2.5999999 3.3,
                                          -0.28999999 2.5999999 3.3,
                                          7.9099998 2.5999999 3.3,
                                          0.20999999 2.5999999 11.5,
                                          7.4099998 2.5999999 11.5,
                                          0.20999999 1.8 11.5,
                                          7.4099998 1.8 11.5,
                                          7.9099998 2.5999999 3.3,
                                          7.9099998 2.5999999 11,
                                          7.9099998 1.8 11,
                                          7.9099998 1.8 3.3,
                                          7.9099998 2.5999999 11,
                                          7.4099998 2.5999999 11.5,
                                          7.8974638 2.5999999 11.11126,
                                          7.8604846 2.5999999 11.216942,
                                          7.8009157 2.5999999 11.311745,
                                          7.721745 2.5999999 11.390916,
                                          7.6269417 2.5999999 11.450484,
                                          7.5212603 2.5999999 11.487464,
                                          7.9099998 1.8 11,
                                          7.4099998 1.8 11.5,
                                          7.8974638 1.8 11.11126,
                                          7.8604846 1.8 11.216942,
                                          7.8009157 1.8 11.311745,
                                          7.721745 1.8 11.390916,
                                          7.6269417 1.8 11.450484,
                                          7.5212603 1.8 11.487464,
                                          7.9099998 1.8 3.3,
                                          7.9099998 1.8 11,
                                          7.4099998 1.8 11.5,
                                          7.8974638 1.8 11.11126,
                                          7.8604846 1.8 11.216942,
                                          7.8009157 1.8 11.311745,
                                          7.721745 1.8 11.390916,
                                          7.6269417 1.8 11.450484,
                                          7.5212603 1.8 11.487464,
                                          -0.28999999 1.8 3.3,
                                          0.20999999 1.8 11.5,
                                          -0.28999999 1.8 11,
                                          -0.27746394 1.8 11.11126,
                                          -0.24048443 1.8 11.216942,
                                          -0.18091574 1.8 11.311745,
                                          -0.1017449 1.8 11.390916,
                                          -0.0069418694 1.8 11.450484,
                                          0.098739535 1.8 11.487464,
                                          -1.29 -3.2 3.3,
                                          -1.29 2.5999999 3.3,
                                          8.9099998 -3.2 3.3,
                                          8.9099998 2.5999999 3.3,
                                          7.9099998 2.5999999 3.3,
                                          7.9099998 1.8 3.3,
                                          -0.28999999 1.8 3.3,
                                          -0.28999999 2.5999999 3.3,
                                          -1.29 -3.2 0,
                                          -1.29 -3.2 3.3,
                                          -1.29 2.5999999 0,
                                          -1.29 2.5999999 3.3,
                                          8.9099998 2.5999999 0,
                                          8.9099998 2.5999999 3.3,
                                          8.9099998 -3.2 0,
                                          8.9099998 -3.2 3.3,
                                          -1.29 2.5999999 0,
                                          8.9099998 2.5999999 0,
                                          8.9099998 -3.2 0,
                                          -1.29 -3.2 0,
                                          8.9099998 -3.2 0,
                                          8.9099998 -3.2 3.3,
                                          -1.29 -3.2 0,
                                          -1.29 -3.2 3.3,
                                          -0.28999999 2.5999999 11,
                                          -0.28999999 2.5999999 3.3,
                                          0.20999999 2.5999999 11.5,
                                          7.9099998 2.5999999 3.3,
                                          7.4099998 2.5999999 11.5,
                                          7.9099998 2.5999999 11,
                                          -0.28999999 1.8 11,
                                          -0.28999999 1.8 3.3,
                                          0.20999999 1.8 11.5,
                                          -1.29 2.5999999 0,
                                          -1.29 2.5999999 3.3,
                                          8.9099998 2.5999999 0,
                                          8.9099998 2.5999999 3.3,
                                          7.4099998 1.8 11.5,
                                          7.9099998 1.8 11,
                                          7.9099998 1.8 3.3,
                                          -1.29 -3.2 3.3,
                                          8.9099998 -3.2 3.3,
                                          -1.29 -3.2 0,
                                          8.9099998 -3.2 0 ]

                                    }
                                    coordIndex [ 0, 1, -1, 1, 3, 4, 5, 6,
                                        7, 8, 2, -1, 0, 9, -1, 2,
                                        10, -1, 9, 11, -1, 11, 12, 13,
                                        14, 15, 16, 17, 10, -1, 18, 19,
                                        -1, 19, 20, -1, 18, 21, -1, 22,
                                        24, 25, 26, 27, 28, 29, 23, -1,
                                        23, 31, -1, 38, 39, -1, 40, 41,
                                        -1, 38, 40, -1, 39, 42, -1, 43,
                                        41, -1, 45, 47, -1, 47, 46, -1,
                                        49, 50, -1, 48, 51, -1, 51, 50,
                                        -1, 60, 62, 63, 64, 65, 66, 67,
                                        61, -1, 68, 77, -1, 86, 87, -1,
                                        88, 86, -1, 89, 88, -1, 94, 95,
                                        -1, 94, 96, -1, 100, 101, -1, 98,
                                        100, -1, 104, 105, -1 ]

                                  }

                                }

                            },
                              
                            DEF o31 Group {
                              children 
                                DEF o32 Shape {
                                  appearance 
                                  Appearance {
                                    material 
                                    Material {
                                      diffuseColor 1 1 0.50196081

                                    }

                                  }
                                  geometry 
                                  IndexedFaceSet {
                                    coord 
                                    USE o30
                                    coordIndex [ 7, 5, 6, -1, 2, 1, 3, -1,
                                        2, 3, 4, -1, 2, 4, 5, -1,
                                        2, 7, 8, -1, 2, 5, 7, -1,
                                        16, 10, 17, -1, 14, 16, 15, -1,
                                        14, 10, 16, -1, 12, 14, 13, -1,
                                        11, 2, 10, -1, 11, 1, 2, -1,
                                        11, 14, 12, -1, 11, 10, 14, -1,
                                        9, 0, 1, -1, 9, 1, 11, -1,
                                        21, 18, 19, -1, 21, 19, 20, -1,
                                        32, 22, 24, -1, 32, 30, 22, -1,
                                        33, 24, 25, -1, 33, 32, 24, -1,
                                        34, 25, 26, -1, 34, 33, 25, -1,
                                        35, 26, 27, -1, 35, 34, 26, -1,
                                        36, 27, 28, -1, 36, 35, 27, -1,
                                        37, 28, 29, -1, 37, 36, 28, -1,
                                        31, 29, 23, -1, 31, 37, 29, -1,
                                        38, 39, 42, -1, 40, 42, 43, -1,
                                        40, 43, 41, -1, 40, 38, 42, -1,
                                        44, 46, 45, -1, 45, 46, 47, -1,
                                        51, 48, 49, -1, 51, 49, 50, -1,
                                        62, 52, 54, -1, 62, 60, 52, -1,
                                        63, 54, 55, -1, 63, 62, 54, -1,
                                        64, 55, 56, -1, 64, 63, 55, -1,
                                        65, 56, 57, -1, 65, 64, 56, -1,
                                        66, 57, 58, -1, 66, 65, 57, -1,
                                        67, 58, 59, -1, 67, 66, 58, -1,
                                        61, 59, 53, -1, 61, 67, 59, -1,
                                        75, 73, 74, -1, 70, 69, 71, -1,
                                        70, 71, 72, -1, 70, 72, 73, -1,
                                        70, 75, 76, -1, 70, 73, 75, -1,
                                        84, 78, 85, -1, 82, 84, 83, -1,
                                        82, 78, 84, -1, 80, 82, 81, -1,
                                        79, 70, 78, -1, 79, 69, 70, -1,
                                        79, 82, 80, -1, 79, 78, 82, -1,
                                        77, 68, 69, -1, 77, 69, 79, -1,
                                        89, 91, 88, -1, 89, 90, 91, -1,
                                        88, 92, 86, -1, 91, 92, 88, -1,
                                        93, 87, 92, -1, 92, 87, 86, -1,
                                        96, 94, 95, -1, 96, 95, 97, -1,
                                        100, 98, 99, -1, 100, 99, 101, -1,
                                        102, 103, 104, -1, 102, 104, 105, -1,
                                        108, 106, 107, -1, 108, 107, 109, -1 ]
                                    ccw TRUE
                                    solid FALSE
                                    convex TRUE
                                    creaseAngle 0

                                  }

                                }

                            },
                              
                            DEF o33 Group {
                              children 
                                DEF o34 Shape {
                                  appearance 
                                  Appearance {
                                    material 
                                    Material {
                                      emissiveColor 0.098039217 0.098039217 0.098039217

                                    }

                                  }
                                  geometry 
                                  PointSet {
                                    coord 
                                    USE o30

                                  }

                                }

                            } ]

                        }

                    }

                } ]

            }

        } ]

    }

}
