(export (version D)
  (design
    (source /home/thierry/Documents/fab/kicad/Terrarium/photoResistor_board/photoResistor_board.sch)
    (date "ven. 26 avril 2019 15:11:51 CEST")
    (tool "Eeschema 5.0.2-bee76a0~70~ubuntu18.04.1")
    (sheet (number 1) (name /) (tstamps /)
      (title_block
        (title)
        (company)
        (rev)
        (date)
        (source photoResistor_board.sch)
        (comment (number 1) (value ""))
        (comment (number 2) (value ""))
        (comment (number 3) (value ""))
        (comment (number 4) (value "")))))
  (components
    (comp (ref J1)
      (value Conn_01x02)
      (footprint Components:WR-WTB-H_02)
      (datasheet ~)
      (libsource (lib Connector_Generic) (part Conn_01x02) (description "Generic connector, single row, 01x02, script generated (kicad-library-utils/schlib/autogen/connector/)"))
      (sheetpath (names /) (tstamps /))
      (tstamp 5CC3002C))
    (comp (ref R1)
      (value R_PHOTO)
      (footprint Components:PH_W2.54mmD0.8mm)
      (datasheet ~)
      (libsource (lib Device) (part R_PHOTO) (description Photoresistor))
      (sheetpath (names /) (tstamps /))
      (tstamp 5CC30154))
    (comp (ref H1)
      (value MountingHole)
      (footprint Components:Mounting_Hole_3.2mm)
      (datasheet ~)
      (libsource (lib Mechanical) (part MountingHole) (description "Mounting Hole without connection"))
      (sheetpath (names /) (tstamps /))
      (tstamp 5CC303E0))
    (comp (ref H2)
      (value MountingHole)
      (footprint Components:Mounting_Hole_3.2mm)
      (datasheet ~)
      (libsource (lib Mechanical) (part MountingHole) (description "Mounting Hole without connection"))
      (sheetpath (names /) (tstamps /))
      (tstamp 5CC303FE)))
  (libparts
    (libpart (lib Connector_Generic) (part Conn_01x02)
      (description "Generic connector, single row, 01x02, script generated (kicad-library-utils/schlib/autogen/connector/)")
      (docs ~)
      (footprints
        (fp Connector*:*_1x??_*))
      (fields
        (field (name Reference) J)
        (field (name Value) Conn_01x02))
      (pins
        (pin (num 1) (name Pin_1) (type passive))
        (pin (num 2) (name Pin_2) (type passive))))
    (libpart (lib Device) (part R_PHOTO)
      (description Photoresistor)
      (docs ~)
      (footprints
        (fp *LDR*)
        (fp R?LDR*))
      (fields
        (field (name Reference) R)
        (field (name Value) R_PHOTO))
      (pins
        (pin (num 1) (name ~) (type passive))
        (pin (num 2) (name ~) (type passive))))
    (libpart (lib Mechanical) (part MountingHole)
      (description "Mounting Hole without connection")
      (docs ~)
      (footprints
        (fp MountingHole*))
      (fields
        (field (name Reference) H)
        (field (name Value) MountingHole))))
  (libraries
    (library (logical Connector_Generic)
      (uri /usr/share/kicad/library/Connector_Generic.lib))
    (library (logical Device)
      (uri /usr/share/kicad/library/Device.lib))
    (library (logical Mechanical)
      (uri /usr/share/kicad/library/Mechanical.lib)))
  (nets
    (net (code 1) (name "Net-(J1-Pad1)")
      (node (ref J1) (pin 1))
      (node (ref R1) (pin 1)))
    (net (code 2) (name "Net-(J1-Pad2)")
      (node (ref J1) (pin 2))
      (node (ref R1) (pin 2)))))