G21
G90
G94
F30
G00 Z1.00
M03
G00 X71.11 Y27.67
G01 Z-0.60
G01 X71.11 Y25.67
G01 Z-1.20
G01 X71.11 Y27.67
G01 Z-1.80
G01 X71.11 Y25.67
G01 Z0.00
G00 Z1.00
G00 X69.11 Y21.97
G01 Z-0.60
G01 X67.11 Y21.97
G01 Z-1.20
G01 X69.11 Y21.97
G01 Z-1.80
G01 X67.11 Y21.97
G01 Z0.00
G00 Z1.00
G00 X65.11 Y27.92
G01 Z-0.60
G01 X65.11 Y25.42
G01 Z-1.20
G01 X65.11 Y27.92
G01 Z-1.80
G01 X65.11 Y25.42
G01 Z0.00
G00 Z1.00
G00 X0.00Y0.00
M30
