G04 #@! TF.GenerationSoftware,KiCad,Pcbnew,5.0.2-bee76a0~70~ubuntu18.04.1*
G04 #@! TF.CreationDate,2019-04-28T10:12:57+02:00*
G04 #@! TF.ProjectId,Terrarium_shield,54657272-6172-4697-956d-5f736869656c,rev?*
G04 #@! TF.SameCoordinates,PX66f2fb0PY71d9820*
G04 #@! TF.FileFunction,Copper,L2,Bot*
G04 #@! TF.FilePolarity,Positive*
%FSLAX46Y46*%
G04 Gerber Fmt 4.6, Leading zero omitted, Abs format (unit mm)*
G04 Created by KiCad (PCBNEW 5.0.2-bee76a0~70~ubuntu18.04.1) date dim. 28 avril 2019 10:12:57 CEST*
%MOMM*%
%LPD*%
G01*
G04 APERTURE LIST*
G04 #@! TA.AperFunction,ComponentPad*
%ADD10C,2.000000*%
G04 #@! TD*
G04 #@! TA.AperFunction,ComponentPad*
%ADD11O,2.000000X2.000000*%
G04 #@! TD*
G04 #@! TA.AperFunction,Conductor*
%ADD12C,0.100000*%
G04 #@! TD*
G04 #@! TA.AperFunction,ComponentPad*
%ADD13C,3.500000*%
G04 #@! TD*
G04 #@! TA.AperFunction,Conductor*
%ADD14C,0.800000*%
G04 #@! TD*
G04 APERTURE END LIST*
D10*
G04 #@! TO.P,U1,4*
G04 #@! TO.N,GND*
X54610000Y48895000D03*
G04 #@! TO.P,U1,3*
G04 #@! TO.N,N/C*
X52070000Y48895000D03*
G04 #@! TO.P,U1,2*
G04 #@! TO.N,/DHT*
X49530000Y48895000D03*
G04 #@! TO.P,U1,1*
G04 #@! TO.N,/5V*
X46990000Y48895000D03*
G04 #@! TD*
G04 #@! TO.P,J3,4*
G04 #@! TO.N,/GREEN*
X40386000Y48895000D03*
G04 #@! TO.P,J3,3*
G04 #@! TO.N,/BLUE*
X37846000Y48895000D03*
G04 #@! TO.P,J3,2*
G04 #@! TO.N,GND*
X35306000Y48895000D03*
G04 #@! TO.P,J3,1*
G04 #@! TO.N,/RED*
X32766000Y48895000D03*
G04 #@! TD*
G04 #@! TO.P,J4,4*
G04 #@! TO.N,/GREEN*
X40386000Y42545000D03*
G04 #@! TO.P,J4,3*
G04 #@! TO.N,/BLUE*
X37846000Y42545000D03*
G04 #@! TO.P,J4,2*
G04 #@! TO.N,GND*
X35306000Y42545000D03*
G04 #@! TO.P,J4,1*
G04 #@! TO.N,/RED*
X32766000Y42545000D03*
G04 #@! TD*
G04 #@! TO.P,U2,16*
G04 #@! TO.N,/5V*
X61595000Y30480000D03*
G04 #@! TO.P,U2,15*
G04 #@! TO.N,Net-(U2-Pad15)*
X59055000Y30480000D03*
G04 #@! TO.P,U2,14*
G04 #@! TO.N,Net-(U2-Pad14)*
X56515000Y30480000D03*
G04 #@! TO.P,U2,13*
G04 #@! TO.N,GND*
X53975000Y30480000D03*
G04 #@! TO.P,U2,12*
X51435000Y30480000D03*
G04 #@! TO.P,U2,11*
G04 #@! TO.N,Net-(U2-Pad11)*
X48895000Y30480000D03*
G04 #@! TO.P,U2,10*
G04 #@! TO.N,Net-(U2-Pad10)*
X46355000Y30480000D03*
G04 #@! TO.P,U2,9*
G04 #@! TO.N,Net-(U2-Pad9)*
X43815000Y30480000D03*
G04 #@! TO.P,U2,8*
G04 #@! TO.N,+12V*
X43815000Y38100000D03*
G04 #@! TO.P,U2,7*
G04 #@! TO.N,/PUMP_COM*
X46355000Y38100000D03*
G04 #@! TO.P,U2,6*
G04 #@! TO.N,/PUMP_OUT*
X48895000Y38100000D03*
G04 #@! TO.P,U2,5*
G04 #@! TO.N,GND*
X51435000Y38100000D03*
G04 #@! TO.P,U2,4*
X53975000Y38100000D03*
G04 #@! TO.P,U2,3*
G04 #@! TO.N,/FAN_OUT*
X56515000Y38100000D03*
G04 #@! TO.P,U2,2*
G04 #@! TO.N,/FAN_COM*
X59055000Y38100000D03*
G04 #@! TO.P,U2,1*
G04 #@! TO.N,/5V*
X61595000Y38100000D03*
G04 #@! TD*
G04 #@! TO.P,J6,2*
G04 #@! TO.N,/PUMP_OUT*
X35306000Y36195000D03*
G04 #@! TO.P,J6,1*
G04 #@! TO.N,GND*
X32766000Y36195000D03*
G04 #@! TD*
G04 #@! TO.P,J7,3*
G04 #@! TO.N,Net-(J7-Pad3)*
X37846000Y29845000D03*
G04 #@! TO.P,J7,2*
G04 #@! TO.N,/FAN_OUT*
X35306000Y29845000D03*
G04 #@! TO.P,J7,1*
G04 #@! TO.N,GND*
X32766000Y29845000D03*
G04 #@! TD*
G04 #@! TO.P,J5,3*
G04 #@! TO.N,/SOIL*
X52705000Y15875000D03*
G04 #@! TO.P,J5,2*
G04 #@! TO.N,/5V*
X52705000Y18415000D03*
G04 #@! TO.P,J5,1*
G04 #@! TO.N,GND*
X52705000Y20955000D03*
G04 #@! TD*
G04 #@! TO.P,J8,3*
G04 #@! TO.N,/PH*
X59055000Y15875000D03*
G04 #@! TO.P,J8,2*
G04 #@! TO.N,/5V*
X59055000Y18415000D03*
G04 #@! TO.P,J8,1*
G04 #@! TO.N,GND*
X59055000Y20955000D03*
G04 #@! TD*
G04 #@! TO.P,J2,2*
G04 #@! TO.N,/LIGHT*
X59055000Y10160000D03*
G04 #@! TO.P,J2,1*
G04 #@! TO.N,GND*
X59055000Y12700000D03*
G04 #@! TD*
D11*
G04 #@! TO.P,R1,2*
G04 #@! TO.N,/5V*
X63500000Y22225000D03*
D10*
G04 #@! TO.P,R1,1*
G04 #@! TO.N,/LIGHT*
X63500000Y14605000D03*
G04 #@! TD*
G04 #@! TO.P,A1,32*
G04 #@! TO.N,Net-(A1-Pad32)*
X20066000Y53340000D03*
G04 #@! TO.P,A1,31*
G04 #@! TO.N,Net-(A1-Pad31)*
X22606000Y53340000D03*
G04 #@! TO.P,A1,30*
G04 #@! TO.N,Net-(A1-Pad30)*
X25146000Y53340000D03*
G04 #@! TO.P,A1,29*
G04 #@! TO.N,GND*
X27686000Y53340000D03*
G04 #@! TO.P,A1,28*
G04 #@! TO.N,Net-(A1-Pad28)*
X30226000Y53340000D03*
G04 #@! TO.P,A1,27*
G04 #@! TO.N,Net-(A1-Pad27)*
X32766000Y53340000D03*
G04 #@! TO.P,A1,26*
G04 #@! TO.N,/RED*
X35306000Y53340000D03*
G04 #@! TO.P,A1,25*
G04 #@! TO.N,/BLUE*
X37846000Y53340000D03*
G04 #@! TO.P,A1,24*
G04 #@! TO.N,/GREEN*
X40386000Y53340000D03*
G04 #@! TO.P,A1,23*
G04 #@! TO.N,Net-(A1-Pad23)*
X42926000Y53340000D03*
G04 #@! TO.P,A1,1*
G04 #@! TO.N,Net-(A1-Pad1)*
X29210000Y5080000D03*
G04 #@! TO.P,A1,2*
G04 #@! TO.N,Net-(A1-Pad2)*
X31750000Y5080000D03*
G04 #@! TO.P,A1,3*
G04 #@! TO.N,Net-(A1-Pad3)*
X34290000Y5080000D03*
G04 #@! TO.P,A1,4*
G04 #@! TO.N,Net-(A1-Pad4)*
X36830000Y5080000D03*
G04 #@! TO.P,A1,5*
G04 #@! TO.N,/5V*
X39370000Y5080000D03*
G04 #@! TO.P,A1,6*
G04 #@! TO.N,GND*
X41910000Y5080000D03*
G04 #@! TO.P,A1,7*
X44450000Y5080000D03*
G04 #@! TO.P,A1,8*
G04 #@! TO.N,+12V*
X46990000Y5080000D03*
G04 #@! TO.P,A1,9*
G04 #@! TO.N,/SOIL*
X52070000Y5080000D03*
G04 #@! TO.P,A1,10*
G04 #@! TO.N,/PH*
X54610000Y5080000D03*
G04 #@! TO.P,A1,11*
G04 #@! TO.N,/LIGHT*
X57150000Y5080000D03*
G04 #@! TO.P,A1,12*
G04 #@! TO.N,Net-(A1-Pad12)*
X59690000Y5080000D03*
G04 #@! TO.P,A1,13*
G04 #@! TO.N,Net-(A1-Pad13)*
X62230000Y5080000D03*
G04 #@! TO.P,A1,14*
G04 #@! TO.N,Net-(A1-Pad14)*
X64770000Y5080000D03*
G04 #@! TO.P,A1,22*
G04 #@! TO.N,Net-(A1-Pad22)*
X46990000Y53340000D03*
G04 #@! TO.P,A1,21*
G04 #@! TO.N,Net-(A1-Pad21)*
X49530000Y53340000D03*
G04 #@! TO.P,A1,20*
G04 #@! TO.N,Net-(A1-Pad20)*
X52070000Y53340000D03*
G04 #@! TO.P,A1,19*
G04 #@! TO.N,/DHT*
X54610000Y53340000D03*
G04 #@! TO.P,A1,18*
G04 #@! TO.N,/PUMP_COM*
X57150000Y53340000D03*
G04 #@! TO.P,A1,17*
G04 #@! TO.N,/FAN_COM*
X59690000Y53340000D03*
G04 #@! TO.P,A1,16*
G04 #@! TO.N,Net-(A1-Pad16)*
X62230000Y53340000D03*
G04 #@! TO.P,A1,15*
G04 #@! TO.N,Net-(A1-Pad15)*
X64770000Y53340000D03*
G04 #@! TD*
D12*
G04 #@! TO.N,GND*
G04 #@! TO.C,J1*
G36*
X7100765Y23715787D02*
X7185704Y23703187D01*
X7268999Y23682323D01*
X7349848Y23653395D01*
X7427472Y23616681D01*
X7501124Y23572536D01*
X7570094Y23521384D01*
X7633718Y23463718D01*
X7691384Y23400094D01*
X7742536Y23331124D01*
X7786681Y23257472D01*
X7823395Y23179848D01*
X7852323Y23098999D01*
X7873187Y23015704D01*
X7885787Y22930765D01*
X7890000Y22845000D01*
X7890000Y21095000D01*
X7885787Y21009235D01*
X7873187Y20924296D01*
X7852323Y20841001D01*
X7823395Y20760152D01*
X7786681Y20682528D01*
X7742536Y20608876D01*
X7691384Y20539906D01*
X7633718Y20476282D01*
X7570094Y20418616D01*
X7501124Y20367464D01*
X7427472Y20323319D01*
X7349848Y20286605D01*
X7268999Y20257677D01*
X7185704Y20236813D01*
X7100765Y20224213D01*
X7015000Y20220000D01*
X4765000Y20220000D01*
X4679235Y20224213D01*
X4594296Y20236813D01*
X4511001Y20257677D01*
X4430152Y20286605D01*
X4352528Y20323319D01*
X4278876Y20367464D01*
X4209906Y20418616D01*
X4146282Y20476282D01*
X4088616Y20539906D01*
X4037464Y20608876D01*
X3993319Y20682528D01*
X3956605Y20760152D01*
X3927677Y20841001D01*
X3906813Y20924296D01*
X3894213Y21009235D01*
X3890000Y21095000D01*
X3890000Y22845000D01*
X3894213Y22930765D01*
X3906813Y23015704D01*
X3927677Y23098999D01*
X3956605Y23179848D01*
X3993319Y23257472D01*
X4037464Y23331124D01*
X4088616Y23400094D01*
X4146282Y23463718D01*
X4209906Y23521384D01*
X4278876Y23572536D01*
X4352528Y23616681D01*
X4430152Y23653395D01*
X4511001Y23682323D01*
X4594296Y23703187D01*
X4679235Y23715787D01*
X4765000Y23720000D01*
X7015000Y23720000D01*
X7100765Y23715787D01*
X7100765Y23715787D01*
G37*
D13*
G04 #@! TD*
G04 #@! TO.P,J1,3*
G04 #@! TO.N,GND*
X5890000Y21970000D03*
D12*
G04 #@! TO.N,GND*
G04 #@! TO.C,J1*
G36*
X3850765Y28665787D02*
X3935704Y28653187D01*
X4018999Y28632323D01*
X4099848Y28603395D01*
X4177472Y28566681D01*
X4251124Y28522536D01*
X4320094Y28471384D01*
X4383718Y28413718D01*
X4441384Y28350094D01*
X4492536Y28281124D01*
X4536681Y28207472D01*
X4573395Y28129848D01*
X4602323Y28048999D01*
X4623187Y27965704D01*
X4635787Y27880765D01*
X4640000Y27795000D01*
X4640000Y25545000D01*
X4635787Y25459235D01*
X4623187Y25374296D01*
X4602323Y25291001D01*
X4573395Y25210152D01*
X4536681Y25132528D01*
X4492536Y25058876D01*
X4441384Y24989906D01*
X4383718Y24926282D01*
X4320094Y24868616D01*
X4251124Y24817464D01*
X4177472Y24773319D01*
X4099848Y24736605D01*
X4018999Y24707677D01*
X3935704Y24686813D01*
X3850765Y24674213D01*
X3765000Y24670000D01*
X2015000Y24670000D01*
X1929235Y24674213D01*
X1844296Y24686813D01*
X1761001Y24707677D01*
X1680152Y24736605D01*
X1602528Y24773319D01*
X1528876Y24817464D01*
X1459906Y24868616D01*
X1396282Y24926282D01*
X1338616Y24989906D01*
X1287464Y25058876D01*
X1243319Y25132528D01*
X1206605Y25210152D01*
X1177677Y25291001D01*
X1156813Y25374296D01*
X1144213Y25459235D01*
X1140000Y25545000D01*
X1140000Y27795000D01*
X1144213Y27880765D01*
X1156813Y27965704D01*
X1177677Y28048999D01*
X1206605Y28129848D01*
X1243319Y28207472D01*
X1287464Y28281124D01*
X1338616Y28350094D01*
X1396282Y28413718D01*
X1459906Y28471384D01*
X1528876Y28522536D01*
X1602528Y28566681D01*
X1680152Y28603395D01*
X1761001Y28632323D01*
X1844296Y28653187D01*
X1929235Y28665787D01*
X2015000Y28670000D01*
X3765000Y28670000D01*
X3850765Y28665787D01*
X3850765Y28665787D01*
G37*
D13*
G04 #@! TD*
G04 #@! TO.P,J1,2*
G04 #@! TO.N,GND*
X2890000Y26670000D03*
D12*
G04 #@! TO.N,+12V*
G04 #@! TO.C,J1*
G36*
X9850765Y28915787D02*
X9935704Y28903187D01*
X10018999Y28882323D01*
X10099848Y28853395D01*
X10177472Y28816681D01*
X10251124Y28772536D01*
X10320094Y28721384D01*
X10383718Y28663718D01*
X10441384Y28600094D01*
X10492536Y28531124D01*
X10536681Y28457472D01*
X10573395Y28379848D01*
X10602323Y28298999D01*
X10623187Y28215704D01*
X10635787Y28130765D01*
X10640000Y28045000D01*
X10640000Y25295000D01*
X10635787Y25209235D01*
X10623187Y25124296D01*
X10602323Y25041001D01*
X10573395Y24960152D01*
X10536681Y24882528D01*
X10492536Y24808876D01*
X10441384Y24739906D01*
X10383718Y24676282D01*
X10320094Y24618616D01*
X10251124Y24567464D01*
X10177472Y24523319D01*
X10099848Y24486605D01*
X10018999Y24457677D01*
X9935704Y24436813D01*
X9850765Y24424213D01*
X9765000Y24420000D01*
X8015000Y24420000D01*
X7929235Y24424213D01*
X7844296Y24436813D01*
X7761001Y24457677D01*
X7680152Y24486605D01*
X7602528Y24523319D01*
X7528876Y24567464D01*
X7459906Y24618616D01*
X7396282Y24676282D01*
X7338616Y24739906D01*
X7287464Y24808876D01*
X7243319Y24882528D01*
X7206605Y24960152D01*
X7177677Y25041001D01*
X7156813Y25124296D01*
X7144213Y25209235D01*
X7140000Y25295000D01*
X7140000Y28045000D01*
X7144213Y28130765D01*
X7156813Y28215704D01*
X7177677Y28298999D01*
X7206605Y28379848D01*
X7243319Y28457472D01*
X7287464Y28531124D01*
X7338616Y28600094D01*
X7396282Y28663718D01*
X7459906Y28721384D01*
X7528876Y28772536D01*
X7602528Y28816681D01*
X7680152Y28853395D01*
X7761001Y28882323D01*
X7844296Y28903187D01*
X7929235Y28915787D01*
X8015000Y28920000D01*
X9765000Y28920000D01*
X9850765Y28915787D01*
X9850765Y28915787D01*
G37*
D13*
G04 #@! TD*
G04 #@! TO.P,J1,1*
G04 #@! TO.N,+12V*
X8890000Y26670000D03*
D14*
G04 #@! TO.N,/FAN_COM*
X59055000Y43180000D02*
X59055000Y38100000D01*
X59690000Y53340000D02*
X59765001Y43890001D01*
X59765001Y43890001D02*
X59055000Y43180000D01*
G04 #@! TO.N,/PUMP_COM*
X57225001Y53191497D02*
X57150000Y53116496D01*
X57150000Y53340000D02*
X57150000Y43180000D01*
X57150000Y43180000D02*
X46355000Y43180000D01*
X46355000Y43180000D02*
X46355000Y38100000D01*
G04 #@! TO.N,/DHT*
X54610000Y53340000D02*
X54610000Y51308000D01*
X54610000Y51308000D02*
X49530000Y51308000D01*
X49530000Y51308000D02*
X49530000Y48895000D01*
G04 #@! TO.N,/LIGHT*
X63500000Y10160000D02*
X59055000Y10160000D01*
X57150000Y8255000D02*
X57150000Y5080000D01*
X59055000Y10160000D02*
X57150000Y8255000D01*
X63500000Y14605000D02*
X63500000Y10160000D01*
G04 #@! TO.N,/PH*
X54610000Y11430000D02*
X54610000Y5080000D01*
X59055000Y15875000D02*
X54610000Y11430000D01*
G04 #@! TO.N,/SOIL*
X52705000Y5715000D02*
X52070000Y5080000D01*
X52705000Y15875000D02*
X52705000Y5715000D01*
G04 #@! TO.N,+12V*
X42683630Y38100000D02*
X43815000Y38100000D01*
X8890000Y29220000D02*
X17770000Y38100000D01*
X8890000Y26670000D02*
X8890000Y29220000D01*
X30480000Y38100000D02*
X42683630Y38100000D01*
X17770000Y38100000D02*
X30480000Y38100000D01*
X46990000Y8255000D02*
X46990000Y5080000D01*
X30480000Y38100000D02*
X30480000Y26035000D01*
X30480000Y26035000D02*
X46990000Y8255000D01*
G04 #@! TO.N,GND*
X53975000Y38100000D02*
X51435000Y38100000D01*
X51435000Y30480000D02*
X53975000Y30480000D01*
X53975000Y30480000D02*
X53975000Y29348630D01*
X53975000Y29348630D02*
X53975000Y27305000D01*
X53975000Y27305000D02*
X32766000Y27305000D01*
X35306000Y48895000D02*
X35306000Y42545000D01*
X32766000Y36195000D02*
X32766000Y29845000D01*
X32766000Y29845000D02*
X32766000Y27305000D01*
X27686000Y53340000D02*
X27686000Y40640000D01*
X35306000Y42545000D02*
X35306000Y40640000D01*
X16860000Y40640000D02*
X2890000Y26670000D01*
X27686000Y40640000D02*
X16860000Y40640000D01*
X53975000Y27305000D02*
X53975000Y20955000D01*
X59055000Y20955000D02*
X53975000Y20955000D01*
X53975000Y20955000D02*
X52705000Y20955000D01*
X61595000Y20955000D02*
X59055000Y20955000D01*
X59055000Y12700000D02*
X61595000Y12700000D01*
X61595000Y12700000D02*
X61595000Y20955000D01*
X41910000Y5080000D02*
X44450000Y5080000D01*
X2890000Y24970000D02*
X5890000Y21970000D01*
X2890000Y26670000D02*
X2890000Y24970000D01*
X44450000Y7620000D02*
X44450000Y5080000D01*
X44450000Y45212000D02*
X54610000Y45212000D01*
X27686000Y40640000D02*
X44450000Y40640000D01*
X54610000Y45212000D02*
X54610000Y48895000D01*
X44450000Y40640000D02*
X44450000Y45212000D01*
X51435000Y34290000D02*
X32766000Y34290000D01*
X51435000Y34290000D02*
X51435000Y38100000D01*
X45720000Y3175000D02*
X48895000Y3175000D01*
X44450000Y5080000D02*
X45720000Y3175000D01*
X48895000Y20955000D02*
X52705000Y20955000D01*
X48895000Y3175000D02*
X48895000Y20955000D01*
X31195000Y21970000D02*
X44450000Y7620000D01*
X6350000Y21970000D02*
X31195000Y21970000D01*
G04 #@! TO.N,/5V*
X61595000Y38100000D02*
X61595000Y30480000D01*
X52705000Y18415000D02*
X59055000Y18415000D01*
X61595000Y30480000D02*
X63500000Y28575000D01*
X63500000Y28575000D02*
X63500000Y22225000D01*
X50165000Y18415000D02*
X50165000Y1905000D01*
X52705000Y18415000D02*
X50165000Y18415000D01*
X39370000Y1905000D02*
X39370000Y5080000D01*
X66040000Y1905000D02*
X39370000Y1905000D01*
X70485000Y6985000D02*
X66040000Y1905000D01*
X70485000Y19685000D02*
X70485000Y6985000D01*
X63500000Y22225000D02*
X67945000Y22225000D01*
X67945000Y22225000D02*
X70485000Y19685000D01*
X44958000Y50800000D02*
X46990000Y48895000D01*
X44958000Y55372000D02*
X44958000Y50800000D01*
X61595000Y38100000D02*
X61595000Y39700000D01*
X66595002Y55375000D02*
X44958000Y55372000D01*
X66595002Y44700002D02*
X66595002Y55375000D01*
X61595000Y39700000D02*
X66595002Y44700002D01*
G04 #@! TO.N,/RED*
X32766000Y48895000D02*
X32766000Y42545000D01*
X32766000Y48895000D02*
X32766000Y51308000D01*
X32766000Y51308000D02*
X35306000Y51308000D01*
X35306000Y51308000D02*
X35306000Y53340000D01*
G04 #@! TO.N,/BLUE*
X37846000Y53340000D02*
X37846000Y49360010D01*
X37846000Y48895000D02*
X37846000Y42545000D01*
G04 #@! TO.N,/GREEN*
X40386000Y53340000D02*
X40386000Y48895000D01*
X40386000Y48895000D02*
X40386000Y42545000D01*
G04 #@! TO.N,/PUMP_OUT*
X48895000Y36195000D02*
X48895000Y38100000D01*
X35306000Y36195000D02*
X48895000Y36195000D01*
G04 #@! TO.N,/FAN_OUT*
X56515000Y38100000D02*
X56515000Y33020000D01*
X35306000Y33020000D02*
X35306000Y29845000D01*
X56515000Y33020000D02*
X35306000Y33020000D01*
G04 #@! TD*
M02*
