M48
;DRILL file {KiCad 5.0.2-bee76a0~70~ubuntu18.04.1} date dim. 28 avril 2019 10:13:04 CEST
;FORMAT={-:-/ absolute / metric / decimal}
FMAT,2
METRIC,TZ
T1C3.200
%
G90
G05
T1
X15.24Y5.08
X16.51Y53.34
X67.31Y38.1
X67.31Y10.16
T0
M30
