(module Arduino_Shield_Partial (layer F.Cu) (tedit 5B62D1A5)
  (fp_text reference REF** (at 52 -44) (layer F.SilkS)
    (effects (font (size 1 1) (thickness 0.15)))
  )
  (fp_text value Arduino_Shield_Partial (at 52 -41) (layer F.Fab)
    (effects (font (size 1 1) (thickness 0.15)))
  )
  (fp_circle (center 15.24 -50.8) (end 15.24 -52.3875) (layer F.SilkS) (width 0.15))
  (fp_circle (center 13.97 -2.54) (end 13.97 -4.1275) (layer F.SilkS) (width 0.15))
  (fp_circle (center 66.04 -35.56) (end 66.04 -37.1475) (layer F.SilkS) (width 0.15))
  (fp_circle (center 66.04 -7.62) (end 66.04 -9.2075) (layer F.SilkS) (width 0.15))
  (fp_line (start 64.516 -53.34) (end 0 -53.34) (layer F.SilkS) (width 0.15))
  (fp_line (start 0 -53.34) (end 0 0) (layer F.SilkS) (width 0.15))
  (fp_line (start 0 0) (end 66.04 0) (layer F.SilkS) (width 0.15))
  (fp_line (start 68.58 -37.846) (end 66.04 -40.386) (layer F.SilkS) (width 0.15))
  (fp_line (start 66.04 -40.386) (end 66.04 -51.816) (layer F.SilkS) (width 0.15))
  (fp_line (start 66.04 -51.816) (end 64.516 -53.34) (layer F.SilkS) (width 0.15))
  (fp_line (start 68.58 -5.08) (end 68.58 -37.846) (layer F.SilkS) (width 0.15))
  (fp_line (start 66.04 0) (end 66.04 -2.54) (layer F.SilkS) (width 0.15))
  (fp_line (start 66.04 -2.54) (end 68.58 -5.08) (layer F.SilkS) (width 0.15))
  (pad 2 thru_hole circle (at 63.5 -50.8) (size 2.0 2.0) (drill 1) (layers *.Cu *.Mask))
  (pad 3 thru_hole circle (at 60.96 -50.8) (size 2.0 2.0) (drill 1) (layers *.Cu *.Mask))
  (pad 4 thru_hole circle (at 58.42 -50.8) (size 2.0 2.0) (drill 1) (layers *.Cu *.Mask))
  (pad 5 thru_hole circle (at 55.88 -50.8) (size 2.0 2.0) (drill 1) (layers *.Cu *.Mask))
  (pad 6 thru_hole circle (at 53.34 -50.8) (size 2.0 2.0) (drill 1) (layers *.Cu *.Mask))
  (pad 11 thru_hole circle (at 50.8 -50.8) (size 2.0 2.0) (drill 1) (layers *.Cu *.Mask))
  (pad 12 thru_hole circle (at 48.26 -50.8) (size 2.0 2.0) (drill 1) (layers *.Cu *.Mask))
  (pad 13 thru_hole circle (at 45.72 -50.8) (size 2.0 2.0) (drill 1) (layers *.Cu *.Mask))
  (pad 28 thru_hole circle (at 63.5 -2.54) (size 2.0 2.0) (drill 1) (layers *.Cu *.Mask))
  (pad 27 thru_hole circle (at 60.96 -2.54) (size 2.0 2.0) (drill 1) (layers *.Cu *.Mask))
  (pad 26 thru_hole circle (at 58.42 -2.54) (size 2.0 2.0) (drill 1) (layers *.Cu *.Mask))
  (pad 25 thru_hole circle (at 55.88 -2.54) (size 2.0 2.0) (drill 1) (layers *.Cu *.Mask))
  (pad 24 thru_hole circle (at 53.34 -2.54) (size 2.0 2.0) (drill 1) (layers *.Cu *.Mask))
  (pad 23 thru_hole circle (at 50.8 -2.54) (size 2.0 2.0) (drill 1) (layers *.Cu *.Mask))
  (pad 31 thru_hole circle (at 45.72 -2.54) (size 2.0 2.0) (drill 1) (layers *.Cu *.Mask))
  (pad 20 thru_hole circle (at 43.18 -2.54) (size 2.0 2.0) (drill 1) (layers *.Cu *.Mask))
  (pad 20 thru_hole circle (at 40.64 -2.54) (size 2.0 2.0) (drill 1) (layers *.Cu *.Mask))
  (pad 29 thru_hole circle (at 38.1 -2.54) (size 2.0 2.0) (drill 1) (layers *.Cu *.Mask))
  (pad 30 thru_hole circle (at 35.56 -2.54) (size 2.0 2.0) (drill 1) (layers *.Cu *.Mask))
  (pad 1 thru_hole circle (at 33.02 -2.54) (size 2.0 2.0) (drill 1) (layers *.Cu *.Mask))
  (pad 32 thru_hole circle (at 30.48 -2.54) (size 2.0 2.0) (drill 1) (layers *.Cu *.Mask))
  (pad "" thru_hole circle (at 27.94 -2.54) (size 2.0 2.0) (drill 1) (layers *.Cu *.Mask))
)
