(module DIP16_W7.16mmD0.8mm (layer F.Cu) (tedit 5CB98FDC)
  (fp_text reference REF** (at 3.81 -2.54) (layer F.SilkS)
    (effects (font (size 1 1) (thickness 0.15)))
  )
  (fp_text value DIP16_W7.16mmD0.8mm (at 3.81 21.59) (layer F.Fab)
    (effects (font (size 1 1) (thickness 0.15)))
  )
  (fp_line (start 2.54 -1.27) (end -1.27 -1.27) (layer F.SilkS) (width 0.15))
  (fp_line (start -1.27 -1.27) (end -1.27 19.05) (layer F.SilkS) (width 0.15))
  (fp_line (start -1.27 19.05) (end 8.89 19.05) (layer F.SilkS) (width 0.15))
  (fp_line (start 8.89 19.05) (end 8.89 -1.27) (layer F.SilkS) (width 0.15))
  (fp_line (start 8.89 -1.27) (end 5.08 -1.27) (layer F.SilkS) (width 0.15))
  (fp_arc (start 3.81 -1.27) (end 2.54 -1.27) (angle -180) (layer F.SilkS) (width 0.15))
  (pad 1 thru_hole circle (at 0 0) (size 2.0 2.0) (drill 0.8) (layers *.Cu *.Mask))
  (pad 2 thru_hole circle (at 0 2.54) (size 2.0 2.0) (drill 0.8) (layers *.Cu *.Mask))
  (pad 3 thru_hole circle (at 0 5.08) (size 2.0 2.0) (drill 0.8) (layers *.Cu *.Mask))
  (pad 4 thru_hole circle (at 0 7.62) (size 2.0 2.0) (drill 0.8) (layers *.Cu *.Mask))
  (pad 5 thru_hole circle (at 0 10.16) (size 2.0 2.0) (drill 0.8) (layers *.Cu *.Mask))
  (pad 6 thru_hole circle (at 0 12.7) (size 2.0 2.0) (drill 0.8) (layers *.Cu *.Mask))
  (pad 7 thru_hole circle (at 0 15.24) (size 2.0 2.0) (drill 0.8) (layers *.Cu *.Mask))
  (pad 8 thru_hole circle (at 0 17.78) (size 2.0 2.0) (drill 0.8) (layers *.Cu *.Mask))
  (pad 9 thru_hole circle (at 7.62 17.78) (size 2.0 2.0) (drill 0.8) (layers *.Cu *.Mask))
  (pad 10 thru_hole circle (at 7.62 15.24) (size 2.0 2.0) (drill 0.8) (layers *.Cu *.Mask))
  (pad 11 thru_hole circle (at 7.62 12.7) (size 2.0 2.0) (drill 0.8) (layers *.Cu *.Mask))
  (pad 12 thru_hole circle (at 7.62 10.16) (size 2.0 2.0) (drill 0.8) (layers *.Cu *.Mask))
  (pad 13 thru_hole circle (at 7.62 7.62) (size 2.0 2.0) (drill 0.8) (layers *.Cu *.Mask))
  (pad 14 thru_hole circle (at 7.62 5.08) (size 2.0 2.0) (drill 0.8) (layers *.Cu *.Mask))
  (pad 15 thru_hole circle (at 7.62 2.54) (size 2.0 2.0) (drill 0.8) (layers *.Cu *.Mask))
  (pad 16 thru_hole circle (at 7.62 0) (size 2.0 2.0) (drill 0.8) (layers *.Cu *.Mask))
  (model ${KISYS3DMOD}/Package_DIP.3dshapes/DIP-16_W7.62mm.wrl
    (at (xyz 0 0 0))
    (scale (xyz 1 1 1))
    (rotate (xyz 0 0 0))
  )
)
