(module WR-WTB-H_03 (layer F.Cu) (tedit 5CBC11D4)
  (fp_text reference REF** (at 1.27 -15.24) (layer F.SilkS)
    (effects (font (size 1 1) (thickness 0.15)))
  )
  (fp_text value WR-WTB-H_03 (at 5.08 2.54) (layer F.Fab)
    (effects (font (size 1 1) (thickness 0.15)))
  )
  (fp_line (start -1.27 -1.27) (end -1.27 -13.97) (layer F.SilkS) (width 0.1))
  (fp_line (start -1.27 -13.97) (end 6.35 -13.97) (layer F.SilkS) (width 0.1))
  (fp_line (start 6.35 -13.97) (end 6.35 -1.27) (layer F.SilkS) (width 0.1))
  (fp_line (start 6.35 -1.27) (end -1.27 -1.27) (layer F.SilkS) (width 0.1))
  (fp_line (start -1.27 -4.445) (end 6.35 -4.445) (layer F.SilkS) (width 0.1))
  (pad 1 thru_hole circle (at 0 0) (size 2.0 2.0) (drill 1) (layers *.Cu *.Mask))
  (pad 2 thru_hole circle (at 2.54 0) (size 2.0 2.0) (drill 1) (layers *.Cu *.Mask))
  (pad 3 thru_hole circle (at 5.08 0) (size 2.0 2.0) (drill 1) (layers *.Cu *.Mask))
  (model ../../Components.packages3D/WR-WTB-H_03.wrl
    (offset (xyz 0 1.7 2.6))
    (scale (xyz 0.3937 0.3937 0.3937))
    (rotate (xyz 90 0 0))
  )
)
